<article id="post-47849" class="post-47849 post type-post status-publish format-standard has-post-thumbnail hentry category-alumni-updates"> 
 <!-- .entry-header --> 
 <div class="entry-content"> 
  <p>Dreams Do Come True</p> 
  <p>Many Hoop Group alum have succeeded at many different levels, from the NBA, Division 1 as well as small colleges and in high school. </p> 
  <p>In March much of the focus of the sports world focuses on the NCAA Tournament and March Madness.</p> 
  <p>Over 1/3 of the players in the NCAA Tournament, 343 in all are Hoop Group alumni.</p> 
  <p>Hoop Group Alumni in the 2014 NCAA Tournament</p> 
  <table id="tablepress-573" class="tablepress tablepress-id-573"> 
   <tbody> 
    <tr class="row-1"> 
     <td class="column-1"></td>
     <td class="column-2">Reece Williams</td>
     <td class="column-3">Albany</td> 
    </tr> 
    <tr class="row-2"> 
     <td class="column-1"></td>
     <td class="column-2">Austin Carroll</td>
     <td class="column-3">American</td> 
    </tr> 
    <tr class="row-3"> 
     <td class="column-1"><img src="https://hoopgroup.com/wp-content/uploads/2014/03/ZachElcano100.jpg" alt="" width="100" height="120" class="aligncenter size-full wp-image-48164"></td>
     <td class="column-2">Zach Elcano</td>
     <td class="column-3">American</td> 
    </tr> 
    <tr class="row-4"> 
     <td class="column-1"></td>
     <td class="column-2">Charlie Jones</td>
     <td class="column-3">American</td> 
    </tr> 
    <tr class="row-5"> 
     <td class="column-1"></td>
     <td class="column-2">Justice Montgomery</td>
     <td class="column-3">American</td> 
    </tr> 
    <tr class="row-6"> 
     <td class="column-1"></td>
     <td class="column-2">Jesse Reed</td>
     <td class="column-3">American</td> 
    </tr> 
    <tr class="row-7"> 
     <td class="column-1"></td>
     <td class="column-2">Jalen Rhea</td>
     <td class="column-3">American</td> 
    </tr> 
    <tr class="row-8"> 
     <td class="column-1"><img src="https://hoopgroup.com/wp-content/uploads/2014/03/JohnSchoof100.jpg" alt="" width="100" height="120" class="aligncenter size-full wp-image-48162"></td>
     <td class="column-2">John Schoof</td>
     <td class="column-3">American</td> 
    </tr> 
    <tr class="row-9"> 
     <td class="column-1"><img src="https://hoopgroup.com/wp-content/uploads/2014/03/YilretYiljep100.jpg" alt="" width="100" height="120" class="aligncenter size-full wp-image-48171"></td>
     <td class="column-2">Yilret Yiljep</td>
     <td class="column-3">American</td> 
    </tr> 
    <tr class="row-10"> 
     <td class="column-1"><img src="https://hoopgroup.com/wp-content/uploads/2012/11/RondaeJefferson100.jpg" alt="" width="100" height="120" class="aligncenter size-full wp-image-27171"></td>
     <td class="column-2">Rondae Hollis-Jefferson</td>
     <td class="column-3">Arizona</td> 
    </tr> 
    <tr class="row-11"> 
     <td class="column-1"></td>
     <td class="column-2">TJ McConnell</td>
     <td class="column-3">Arizona</td> 
    </tr> 
    <tr class="row-12"> 
     <td class="column-1"></td>
     <td class="column-2">Kaleb Tarczewski</td>
     <td class="column-3">Arizona</td> 
    </tr> 
    <tr class="row-13"> 
     <td class="column-1"></td>
     <td class="column-2">Brandan Kearney</td>
     <td class="column-3">Arizona State</td> 
    </tr> 
    <tr class="row-14"> 
     <td class="column-1"></td>
     <td class="column-2">Jermaine Marshall</td>
     <td class="column-3">Arizona State</td> 
    </tr> 
    <tr class="row-15"> 
     <td class="column-1"></td>
     <td class="column-2">Kenny Cherry</td>
     <td class="column-3">Baylor</td> 
    </tr> 
    <tr class="row-16"> 
     <td class="column-1"></td>
     <td class="column-2">Allerik Freeman</td>
     <td class="column-3">Baylor</td> 
    </tr> 
    <tr class="row-17"> 
     <td class="column-1"></td>
     <td class="column-2">Brady Heslip</td>
     <td class="column-3">Baylor</td> 
    </tr> 
    <tr class="row-18"> 
     <td class="column-1"></td>
     <td class="column-2">Johnathan Motley</td>
     <td class="column-3">Baylor</td> 
    </tr> 
    <tr class="row-19"> 
     <td class="column-1"></td>
     <td class="column-2">Chase Fischer</td>
     <td class="column-3">Brigham Young</td> 
    </tr> 
    <tr class="row-20"> 
     <td class="column-1"><img src="https://hoopgroup.com/wp-content/uploads/2011/03/KyleAnderson100.jpg" alt="" width="100" height="120" class="aligncenter size-full wp-image-8442"></td>
     <td class="column-2">Kyle Anderson</td>
     <td class="column-3">UCLA</td> 
    </tr> 
    <tr class="row-21"> 
     <td class="column-1"></td>
     <td class="column-2">Kyle Odister</td>
     <td class="column-3">Cal Poly</td> 
    </tr> 
    <tr class="row-22"> 
     <td class="column-1"></td>
     <td class="column-2">Troy Caupain</td>
     <td class="column-3">Cincinnati</td> 
    </tr> 
    <tr class="row-23"> 
     <td class="column-1"></td>
     <td class="column-2">Ge'Lawn Guyn</td>
     <td class="column-3">Cincinnati</td> 
    </tr> 
    <tr class="row-24"> 
     <td class="column-1"></td>
     <td class="column-2">Kevin Johnson</td>
     <td class="column-3">Cincinnati</td> 
    </tr> 
    <tr class="row-25"> 
     <td class="column-1"></td>
     <td class="column-2">Sean Kilpatrick</td>
     <td class="column-3">Cincinnati</td> 
    </tr> 
    <tr class="row-26"> 
     <td class="column-1"><img src="https://hoopgroup.com/wp-content/uploads/2013/02/Jermainelawrence100.jpg" alt="" width="100" height="120" class="aligncenter size-full wp-image-28566"></td>
     <td class="column-2">Jermaine Lawrence</td>
     <td class="column-3">Cincinnati</td> 
    </tr> 
    <tr class="row-27"> 
     <td class="column-1"></td>
     <td class="column-2">Deshaun Morman</td>
     <td class="column-3">Cincinnati</td> 
    </tr> 
    <tr class="row-28"> 
     <td class="column-1"></td>
     <td class="column-2">David Nyarsuk</td>
     <td class="column-3">Cincinnati</td> 
    </tr> 
    <tr class="row-29"> 
     <td class="column-1"></td>
     <td class="column-2">Jermaine Sanders</td>
     <td class="column-3">Cincinnati</td> 
    </tr> 
    <tr class="row-30"> 
     <td class="column-1"></td>
     <td class="column-2">Jamaree Strickland</td>
     <td class="column-3">Cincinnati</td> 
    </tr> 
    <tr class="row-31"> 
     <td class="column-1"><img src="http://www.hoopgroup.com/wp-content/uploads/2012/03/ShaqThomas100.jpg" alt="" title="ShaqThomas100" width="100" height="120" class="aligncenter size-full wp-image-18836"></td>
     <td class="column-2">Shaquille Thomas</td>
     <td class="column-3">Cincinnati</td> 
    </tr> 
    <tr class="row-32"> 
     <td class="column-1"></td>
     <td class="column-2">Warren Gillis</td>
     <td class="column-3">Coastal Carolina</td> 
    </tr> 
    <tr class="row-33"> 
     <td class="column-1"></td>
     <td class="column-2">Omar Calhoun</td>
     <td class="column-3">Connecticut</td> 
    </tr> 
    <tr class="row-34"> 
     <td class="column-1"></td>
     <td class="column-2">Kentan Facey</td>
     <td class="column-3">Connecticut</td> 
    </tr> 
    <tr class="row-35"> 
     <td class="column-1"></td>
     <td class="column-2">Lasan Kromah</td>
     <td class="column-3">Connecticut</td> 
    </tr> 
    <tr class="row-36"> 
     <td class="column-1"><img src="https://hoopgroup.com/wp-content/uploads/2012/03/ShabazzNapier100.jpg" alt="" width="100" height="120" class="aligncenter size-full wp-image-18921"></td>
     <td class="column-2">Shabazz Napier</td>
     <td class="column-3">Connecticut</td> 
    </tr> 
    <tr class="row-37"> 
     <td class="column-1"></td>
     <td class="column-2">Phillip Nolan</td>
     <td class="column-3">Connecticut</td> 
    </tr> 
    <tr class="row-38"> 
     <td class="column-1"></td>
     <td class="column-2">Tyler Olander</td>
     <td class="column-3">Connecticut</td> 
    </tr> 
    <tr class="row-39"> 
     <td class="column-1"></td>
     <td class="column-2">Rodney Purvis</td>
     <td class="column-3">Connecticut</td> 
    </tr> 
    <tr class="row-40"> 
     <td class="column-1"><img src="https://hoopgroup.com/wp-content/uploads/2012/11/TerrenceSamuel100.jpg" alt="" width="100" height="120" class="aligncenter size-full wp-image-27169"></td>
     <td class="column-2">Terrence Samuel</td>
     <td class="column-3">Connecticut</td> 
    </tr> 
    <tr class="row-41"> 
     <td class="column-1"></td>
     <td class="column-2">Tor Watts</td>
     <td class="column-3">Connecticut</td> 
    </tr> 
    <tr class="row-42"> 
     <td class="column-1"></td>
     <td class="column-2">Devin Brooks</td>
     <td class="column-3">Creighton</td> 
    </tr> 
    <tr class="row-43"> 
     <td class="column-1"><img src="https://hoopgroup.com/wp-content/uploads/2012/11/DayshawnSmith100.jpg" alt="" width="100" height="120" class="aligncenter size-full wp-image-27212"></td>
     <td class="column-2">Scoochie Smith</td>
     <td class="column-3">Dayton</td> 
    </tr> 
    <tr class="row-44"> 
     <td class="column-1"></td>
     <td class="column-2">Jalen Robinson</td>
     <td class="column-3">Dayton</td> 
    </tr> 
    <tr class="row-45"> 
     <td class="column-1"></td>
     <td class="column-2">Dyshawn Pierre</td>
     <td class="column-3">Dayton</td> 
    </tr> 
    <tr class="row-46"> 
     <td class="column-1"></td>
     <td class="column-2">Jordan Sibert</td>
     <td class="column-3">Dayton</td> 
    </tr> 
    <tr class="row-47"> 
     <td class="column-1"></td>
     <td class="column-2">Alex Gavrilovic</td>
     <td class="column-3">Dayton</td> 
    </tr> 
    <tr class="row-48"> 
     <td class="column-1"></td>
     <td class="column-2">Matt Kavanaugh</td>
     <td class="column-3">Dayton</td> 
    </tr> 
    <tr class="row-49"> 
     <td class="column-1"></td>
     <td class="column-2">Devon Scott</td>
     <td class="column-3">Dayton</td> 
    </tr> 
    <tr class="row-50"> 
     <td class="column-1"></td>
     <td class="column-2">Vee Sanford</td>
     <td class="column-3">Dayton</td> 
    </tr> 
    <tr class="row-51"> 
     <td class="column-1"></td>
     <td class="column-2">Bennett Harris</td>
     <td class="column-3">Delaware</td> 
    </tr> 
    <tr class="row-52"> 
     <td class="column-1"></td>
     <td class="column-2">Jarvis Threatt</td>
     <td class="column-3">Delaware</td> 
    </tr> 
    <tr class="row-53"> 
     <td class="column-1"></td>
     <td class="column-2">Devon Saddler</td>
     <td class="column-3">Delaware</td> 
    </tr> 
    <tr class="row-54"> 
     <td class="column-1"></td>
     <td class="column-2">Devonne Pinkard</td>
     <td class="column-3">Delaware</td> 
    </tr> 
    <tr class="row-55"> 
     <td class="column-1"></td>
     <td class="column-2">Sean Locke</td>
     <td class="column-3">Delaware</td> 
    </tr> 
    <tr class="row-56"> 
     <td class="column-1"></td>
     <td class="column-2">Dylan Miller</td>
     <td class="column-3">Delaware</td> 
    </tr> 
    <tr class="row-57"> 
     <td class="column-1"></td>
     <td class="column-2">Carl Baptiste</td>
     <td class="column-3">Delaware</td> 
    </tr> 
    <tr class="row-58"> 
     <td class="column-1"><img src="https://hoopgroup.com/wp-content/uploads/2011/08/amilejefferson100.jpg" alt="" width="100" height="120" class="aligncenter size-full wp-image-12405"></td>
     <td class="column-2">Amile Jefferson</td>
     <td class="column-3">Duke</td> 
    </tr> 
    <tr class="row-59"> 
     <td class="column-1"><img src="http://www.hoopgroup.com/wp-content/uploads/2012/03/TylerThornton100.jpg" alt="" title="TylerThornton100" width="100" height="120" class="aligncenter size-full wp-image-18920"></td>
     <td class="column-2">Tyler Thornton</td>
     <td class="column-3">Duke</td> 
    </tr> 
    <tr class="row-60"> 
     <td class="column-1"></td>
     <td class="column-2">Marshall Plumlee</td>
     <td class="column-3">Duke</td> 
    </tr> 
    <tr class="row-61"> 
     <td class="column-1"></td>
     <td class="column-2">Josh Hairston</td>
     <td class="column-3">Duke</td> 
    </tr> 
    <tr class="row-62"> 
     <td class="column-1"></td>
     <td class="column-2">Todd Zafrovski</td>
     <td class="column-3">Duke</td> 
    </tr> 
    <tr class="row-63"> 
     <td class="column-1"><img src="http://www.hoopgroup.com/wp-content/uploads/2012/03/QuinnCook100.jpg" alt="" title="QuinnCook100" width="100" height="120" class="aligncenter size-full wp-image-18828"></td>
     <td class="column-2">Quinn Cook</td>
     <td class="column-3">Duke</td> 
    </tr> 
    <tr class="row-64"> 
     <td class="column-1"></td>
     <td class="column-2">Robbie Stenzel</td>
     <td class="column-3">Eastern Kentucky</td> 
    </tr> 
    <tr class="row-65"> 
     <td class="column-1"></td>
     <td class="column-2">Isaac McGlone</td>
     <td class="column-3">Eastern Kentucky</td> 
    </tr> 
    <tr class="row-66"> 
     <td class="column-1"></td>
     <td class="column-2">Jaylen Babb-Harrison</td>
     <td class="column-3">Eastern Kentucky</td> 
    </tr> 
    <tr class="row-67"> 
     <td class="column-1"></td>
     <td class="column-2">Orlando Williams</td>
     <td class="column-3">Eastern Kentucky</td> 
    </tr> 
    <tr class="row-68"> 
     <td class="column-1"></td>
     <td class="column-2">Timmy Knipp</td>
     <td class="column-3">Eastern Kentucky</td> 
    </tr> 
    <tr class="row-69"> 
     <td class="column-1"></td>
     <td class="column-2">Ryan Parsons</td>
     <td class="column-3">Eastern Kentucky</td> 
    </tr> 
    <tr class="row-70"> 
     <td class="column-1"></td>
     <td class="column-2">Deverin Muff</td>
     <td class="column-3">Eastern Kentucky</td> 
    </tr> 
    <tr class="row-71"> 
     <td class="column-1"></td>
     <td class="column-2">Jacob Kurtz</td>
     <td class="column-3">Florida</td> 
    </tr> 
    <tr class="row-72"> 
     <td class="column-1"></td>
     <td class="column-2">Michael Frazier</td>
     <td class="column-3">Florida</td> 
    </tr> 
    <tr class="row-73"> 
     <td class="column-1"></td>
     <td class="column-2">Billy Donovan</td>
     <td class="column-3">Florida</td> 
    </tr> 
    <tr class="row-74"> 
     <td class="column-1"></td>
     <td class="column-2">Chris Walker</td>
     <td class="column-3">Florida</td> 
    </tr> 
    <tr class="row-75"> 
     <td class="column-1"><img src="https://hoopgroup.com/wp-content/uploads/2014/03/EliCarter100.jpg" alt="" width="100" height="120" class="aligncenter size-full wp-image-48180"></td>
     <td class="column-2">Eli Carter</td>
     <td class="column-3">Florida</td> 
    </tr> 
    <tr class="row-76"> 
     <td class="column-1"><img src="https://hoopgroup.com/wp-content/uploads/2014/03/AlexMurphy100.jpg" alt="" width="100" height="120" class="aligncenter size-full wp-image-48165"></td>
     <td class="column-2">Alex Murphy</td>
     <td class="column-3">Florida</td> 
    </tr> 
    <tr class="row-77"> 
     <td class="column-1"></td>
     <td class="column-2">Leonard Livingston</td>
     <td class="column-3">Florida Gulf Coast</td> 
    </tr> 
    <tr class="row-78"> 
     <td class="column-1"></td>
     <td class="column-2">Chase Fieler</td>
     <td class="column-3">Florida Gulf Coast</td> 
    </tr> 
    <tr class="row-79"> 
     <td class="column-1"></td>
     <td class="column-2">Jamail Jones</td>
     <td class="column-3">Florida Gulf Coast</td> 
    </tr> 
    <tr class="row-80"> 
     <td class="column-1"></td>
     <td class="column-2">Christophe Varidel</td>
     <td class="column-3">Florida Gulf Coast</td> 
    </tr> 
    <tr class="row-81"> 
     <td class="column-1"></td>
     <td class="column-2">Nick Griffin</td>
     <td class="column-3">George Washington</td> 
    </tr> 
    <tr class="row-82"> 
     <td class="column-1"><img src="https://hoopgroup.com/wp-content/uploads/2014/03/KethanSavage100.jpg" alt="" width="100" height="120" class="aligncenter size-full wp-image-48166"></td>
     <td class="column-2">Kethan Savage</td>
     <td class="column-3">George Washington</td> 
    </tr> 
    <tr class="row-83"> 
     <td class="column-1"></td>
     <td class="column-2">Ryan McCoy</td>
     <td class="column-3">George Washington</td> 
    </tr> 
    <tr class="row-84"> 
     <td class="column-1"></td>
     <td class="column-2">Joe McDonald</td>
     <td class="column-3">George Washington</td> 
    </tr> 
    <tr class="row-85"> 
     <td class="column-1"></td>
     <td class="column-2">Isaiah Armwood</td>
     <td class="column-3">George Washington</td> 
    </tr> 
    <tr class="row-86"> 
     <td class="column-1"></td>
     <td class="column-2">John Kopriva</td>
     <td class="column-3">George Washington</td> 
    </tr> 
    <tr class="row-87"> 
     <td class="column-1"></td>
     <td class="column-2">Skyler White</td>
     <td class="column-3">George Washington</td> 
    </tr> 
    <tr class="row-88"> 
     <td class="column-1"></td>
     <td class="column-2">Angel Nunez</td>
     <td class="column-3">Gonzaga</td> 
    </tr> 
    <tr class="row-89"> 
     <td class="column-1"></td>
     <td class="column-2">Patrick Steeves</td>
     <td class="column-3">Harvard</td> 
    </tr> 
    <tr class="row-90"> 
     <td class="column-1"></td>
     <td class="column-2">Laurent Rivard</td>
     <td class="column-3">Harvard</td> 
    </tr> 
    <tr class="row-91"> 
     <td class="column-1"></td>
     <td class="column-2">Matt Brown</td>
     <td class="column-3">Harvard</td> 
    </tr> 
    <tr class="row-92"> 
     <td class="column-1"></td>
     <td class="column-2">Agunwa Okolie</td>
     <td class="column-3">Harvard</td> 
    </tr> 
    <tr class="row-93"> 
     <td class="column-1"></td>
     <td class="column-2">Evan Cummins</td>
     <td class="column-3">Harvard</td> 
    </tr> 
    <tr class="row-94"> 
     <td class="column-1"></td>
     <td class="column-2">Tom Hamel</td>
     <td class="column-3">Harvard</td> 
    </tr> 
    <tr class="row-95"> 
     <td class="column-1"></td>
     <td class="column-2">Charlie Anastasi</td>
     <td class="column-3">Harvard</td> 
    </tr> 
    <tr class="row-96"> 
     <td class="column-1"></td>
     <td class="column-2">Brandyn Curry</td>
     <td class="column-3">Harvard</td> 
    </tr> 
    <tr class="row-97"> 
     <td class="column-1"></td>
     <td class="column-2">Matt Fraschilla</td>
     <td class="column-3">Harvard</td> 
    </tr> 
    <tr class="row-98"> 
     <td class="column-1"></td>
     <td class="column-2">Kyle Casey</td>
     <td class="column-3">Harvard</td> 
    </tr> 
    <tr class="row-99"> 
     <td class="column-1"><img src="https://hoopgroup.com/wp-content/uploads/2014/03/melsahnbasabe100.jpg" alt="" width="100" height="120" class="aligncenter size-full wp-image-48159"></td>
     <td class="column-2">Melsahn Basabe</td>
     <td class="column-3">Iowa</td> 
    </tr> 
    <tr class="row-100"> 
     <td class="column-1"></td>
     <td class="column-2">Aaron White</td>
     <td class="column-3">Iowa</td> 
    </tr> 
    <tr class="row-101"> 
     <td class="column-1"></td>
     <td class="column-2">Melvin Ejim</td>
     <td class="column-3">Iowa State</td> 
    </tr> 
    <tr class="row-102"> 
     <td class="column-1"></td>
     <td class="column-2">Sherron Dorsey-Walker</td>
     <td class="column-3">Iowa State</td> 
    </tr> 
    <tr class="row-103"> 
     <td class="column-1"></td>
     <td class="column-2">Naz Long</td>
     <td class="column-3">Iowa State</td> 
    </tr> 
    <tr class="row-104"> 
     <td class="column-1"></td>
     <td class="column-2">Dustin Hogue</td>
     <td class="column-3">Iowa State</td> 
    </tr> 
    <tr class="row-105"> 
     <td class="column-1"></td>
     <td class="column-2">Percy Gibson</td>
     <td class="column-3">Iowa State</td> 
    </tr> 
    <tr class="row-106"> 
     <td class="column-1"></td>
     <td class="column-2">Georges Niang</td>
     <td class="column-3">Iowa State</td> 
    </tr> 
    <tr class="row-107"> 
     <td class="column-1"></td>
     <td class="column-2">Frank Mason</td>
     <td class="column-3">Kansas</td> 
    </tr> 
    <tr class="row-108"> 
     <td class="column-1"></td>
     <td class="column-2">Wayne Selden</td>
     <td class="column-3">Kansas</td> 
    </tr> 
    <tr class="row-109"> 
     <td class="column-1"></td>
     <td class="column-2">Andrew White</td>
     <td class="column-3">Kansas</td> 
    </tr> 
    <tr class="row-110"> 
     <td class="column-1"></td>
     <td class="column-2">Naadir Tharpe</td>
     <td class="column-3">Kansas</td> 
    </tr> 
    <tr class="row-111"> 
     <td class="column-1"></td>
     <td class="column-2">Niko Roberts</td>
     <td class="column-3">Kansas</td> 
    </tr> 
    <tr class="row-112"> 
     <td class="column-1"><img src="https://hoopgroup.com/wp-content/uploads/2014/01/AndrewWiggins100.jpg" alt="" width="100" height="120" class="aligncenter size-full wp-image-46420"></td>
     <td class="column-2">Andrew Wiggins</td>
     <td class="column-3">Kansas</td> 
    </tr> 
    <tr class="row-113"> 
     <td class="column-1"></td>
     <td class="column-2">Connor Frankamp</td>
     <td class="column-3">Kansas</td> 
    </tr> 
    <tr class="row-114"> 
     <td class="column-1"></td>
     <td class="column-2">Brandon Bolden</td>
     <td class="column-3">Kansas State</td> 
    </tr> 
    <tr class="row-115"> 
     <td class="column-1"></td>
     <td class="column-2">Justin Edwards</td>
     <td class="column-3">Kansas State</td> 
    </tr> 
    <tr class="row-116"> 
     <td class="column-1"></td>
     <td class="column-2">Wesley Iwundu</td>
     <td class="column-3">Kansas State</td> 
    </tr> 
    <tr class="row-117"> 
     <td class="column-1"></td>
     <td class="column-2">Nigel Johnson</td>
     <td class="column-3">Kansas State</td> 
    </tr> 
    <tr class="row-118"> 
     <td class="column-1"></td>
     <td class="column-2">Omari Lawrence</td>
     <td class="column-3">Kansas State</td> 
    </tr> 
    <tr class="row-119"> 
     <td class="column-1"><img src="http://www.hoopgroup.com/wp-content/uploads/2012/03/ShaneSouthwell100.jpg" alt="" title="ShaneSouthwell100" width="100" height="120" class="aligncenter size-full wp-image-18918"></td>
     <td class="column-2">Shane Southwell</td>
     <td class="column-3">Kansas State</td> 
    </tr> 
    <tr class="row-120"> 
     <td class="column-1"></td>
     <td class="column-2">Jevon Thomas</td>
     <td class="column-3">Kansas State</td> 
    </tr> 
    <tr class="row-121"> 
     <td class="column-1"></td>
     <td class="column-2">Aaron Harrison</td>
     <td class="column-3">Kentucky</td> 
    </tr> 
    <tr class="row-122"> 
     <td class="column-1"><img src="https://hoopgroup.com/wp-content/uploads/2014/03/AndrewHarrison100.jpg" alt="" width="100" height="120" class="aligncenter size-full wp-image-48172"></td>
     <td class="column-2">Andrew Harrison</td>
     <td class="column-3">Kentucky</td> 
    </tr> 
    <tr class="row-123"> 
     <td class="column-1"></td>
     <td class="column-2">Sam Malone</td>
     <td class="column-3">Kentucky</td> 
    </tr> 
    <tr class="row-124"> 
     <td class="column-1"><img src="https://hoopgroup.com/wp-content/uploads/2013/02/DakariJohnson100.jpg" alt="" width="100" height="120" class="aligncenter size-full wp-image-28565"></td>
     <td class="column-2">Dakari Johnson</td>
     <td class="column-3">Kentucky</td> 
    </tr> 
    <tr class="row-125"> 
     <td class="column-1"></td>
     <td class="column-2">Terry Rozier</td>
     <td class="column-3">Louisville</td> 
    </tr> 
    <tr class="row-126"> 
     <td class="column-1"></td>
     <td class="column-2">Anton Gill</td>
     <td class="column-3">Louisville</td> 
    </tr> 
    <tr class="row-127"> 
     <td class="column-1"><img src="http://www.hoopgroup.com/wp-content/uploads/2012/03/RussSmith100.jpg" alt="" title="RussSmith100" width="100" height="120" class="aligncenter size-full wp-image-18919"></td>
     <td class="column-2">Russ Smith</td>
     <td class="column-3">Louisville</td> 
    </tr> 
    <tr class="row-128"> 
     <td class="column-1"></td>
     <td class="column-2">Dillon Avare</td>
     <td class="column-3">Louisville</td> 
    </tr> 
    <tr class="row-129"> 
     <td class="column-1"></td>
     <td class="column-2">Luke Hancock</td>
     <td class="column-3">Louisville</td> 
    </tr> 
    <tr class="row-130"> 
     <td class="column-1"></td>
     <td class="column-2">Tim Henderson</td>
     <td class="column-3">Louisville</td> 
    </tr> 
    <tr class="row-131"> 
     <td class="column-1"></td>
     <td class="column-2">Montrezl Harris</td>
     <td class="column-3">Louisville</td> 
    </tr> 
    <tr class="row-132"> 
     <td class="column-1"></td>
     <td class="column-2">Stephan Van Treese</td>
     <td class="column-3">Louisville</td> 
    </tr> 
    <tr class="row-133"> 
     <td class="column-1"><img src="https://hoopgroup.com/wp-content/uploads/2014/03/ShaneRichards100.jpg" alt="" width="100" height="120" class="aligncenter size-full wp-image-48167"></td>
     <td class="column-2">Shane Richards</td>
     <td class="column-3">Manhattan</td> 
    </tr> 
    <tr class="row-134"> 
     <td class="column-1"></td>
     <td class="column-2">Tyler Wilson</td>
     <td class="column-3">Manhattan</td> 
    </tr> 
    <tr class="row-135"> 
     <td class="column-1"></td>
     <td class="column-2">Trevor Glassman</td>
     <td class="column-3">Manhattan</td> 
    </tr> 
    <tr class="row-136"> 
     <td class="column-1"></td>
     <td class="column-2">Rhamel Brown</td>
     <td class="column-3">Manhattan</td> 
    </tr> 
    <tr class="row-137"> 
     <td class="column-1"></td>
     <td class="column-2">Rashawn Stores</td>
     <td class="column-3">Manhattan</td> 
    </tr> 
    <tr class="row-138"> 
     <td class="column-1"><img src="https://hoopgroup.com/wp-content/uploads/2011/03/EmmanuelAndujar100.jpg" alt="" width="100" height="120" class="aligncenter size-full wp-image-8440"></td>
     <td class="column-2">Emmy Andujar</td>
     <td class="column-3">Manhattan</td> 
    </tr> 
    <tr class="row-139"> 
     <td class="column-1"></td>
     <td class="column-2">George Beamon</td>
     <td class="column-3">Manhattan</td> 
    </tr> 
    <tr class="row-140"> 
     <td class="column-1"><img src="https://hoopgroup.com/wp-content/uploads/2014/03/AshtonPankey100.jpg" alt="" width="100" height="120" class="aligncenter size-full wp-image-48160"></td>
     <td class="column-2">Ashton Pankey</td>
     <td class="column-3">Manhattan</td> 
    </tr> 
    <tr class="row-141"> 
     <td class="column-1"></td>
     <td class="column-2">Michael Alvarado</td>
     <td class="column-3">Manhattan</td> 
    </tr> 
    <tr class="row-142"> 
     <td class="column-1"><img src="https://hoopgroup.com/wp-content/uploads/2014/03/CarltonAllen100.jpg" alt="" width="100" height="120" class="aligncenter size-full wp-image-48173"></td>
     <td class="column-2">Carlton Allen</td>
     <td class="column-3">Manhattan</td> 
    </tr> 
    <tr class="row-143"> 
     <td class="column-1"></td>
     <td class="column-2">Donovan Kates</td>
     <td class="column-3">Manhattan</td> 
    </tr> 
    <tr class="row-144"> 
     <td class="column-1"><img src="https://hoopgroup.com/wp-content/uploads/2012/03/Derrick-Gordon-100.jpg" alt="" width="100" height="120" class="aligncenter size-full wp-image-18901"></td>
     <td class="column-2">Derrick Gordon</td>
     <td class="column-3">Massahusetts</td> 
    </tr> 
    <tr class="row-145"> 
     <td class="column-1"><img src="https://hoopgroup.com/wp-content/uploads/2013/10/chazwilliams100.jpg" alt="" width="100" height="120" class="aligncenter size-full wp-image-44430"></td>
     <td class="column-2">Chaz Williams</td>
     <td class="column-3">Massahusetts</td> 
    </tr> 
    <tr class="row-146"> 
     <td class="column-1"><img src="https://hoopgroup.com/wp-content/uploads/2012/03/JabarieHinds100.jpg" alt="" width="100" height="120" class="aligncenter size-full wp-image-18832"></td>
     <td class="column-2">Jabarie Hinds</td>
     <td class="column-3">Massahusetts</td> 
    </tr> 
    <tr class="row-147"> 
     <td class="column-1"></td>
     <td class="column-2">Clyde Santee</td>
     <td class="column-3">Massahusetts</td> 
    </tr> 
    <tr class="row-148"> 
     <td class="column-1"></td>
     <td class="column-2">Tyler Bergantino</td>
     <td class="column-3">Massahusetts</td> 
    </tr> 
    <tr class="row-149"> 
     <td class="column-1"></td>
     <td class="column-2">Raphiael Putney</td>
     <td class="column-3">Massahusetts</td> 
    </tr> 
    <tr class="row-150"> 
     <td class="column-1"></td>
     <td class="column-2">Markel Crawford</td>
     <td class="column-3">Memphis</td> 
    </tr> 
    <tr class="row-151"> 
     <td class="column-1"><img src="https://hoopgroup.com/wp-content/uploads/2012/11/KuranIverson100.jpg" alt="" width="100" height="120" class="aligncenter size-full wp-image-27133"></td>
     <td class="column-2">Kuran Iverson</td>
     <td class="column-3">Memphis</td> 
    </tr> 
    <tr class="row-152"> 
     <td class="column-1"></td>
     <td class="column-2">Monty Brown</td>
     <td class="column-3">Mercer</td> 
    </tr> 
    <tr class="row-153"> 
     <td class="column-1"></td>
     <td class="column-2">Kevin Canevari</td>
     <td class="column-3">Mercer</td> 
    </tr> 
    <tr class="row-154"> 
     <td class="column-1"></td>
     <td class="column-2">Daniel Coursey</td>
     <td class="column-3">Mercer</td> 
    </tr> 
    <tr class="row-155"> 
     <td class="column-1"></td>
     <td class="column-2">Langston Hall</td>
     <td class="column-3">Mercer</td> 
    </tr> 
    <tr class="row-156"> 
     <td class="column-1"></td>
     <td class="column-2">TJ Hallice</td>
     <td class="column-3">Mercer</td> 
    </tr> 
    <tr class="row-157"> 
     <td class="column-1"></td>
     <td class="column-2">John Mosser</td>
     <td class="column-3">Mercer</td> 
    </tr> 
    <tr class="row-158"> 
     <td class="column-1"></td>
     <td class="column-2">Ike Nwamu</td>
     <td class="column-3">Mercer</td> 
    </tr> 
    <tr class="row-159"> 
     <td class="column-1"></td>
     <td class="column-2">Matt Panaggio</td>
     <td class="column-3">Mercer</td> 
    </tr> 
    <tr class="row-160"> 
     <td class="column-1"></td>
     <td class="column-2">Glen Robinson</td>
     <td class="column-3">Michigan</td> 
    </tr> 
    <tr class="row-161"> 
     <td class="column-1"><img src="https://hoopgroup.com/wp-content/uploads/2014/03/MitchMcGarry100.jpg" alt="" width="100" height="120" class="aligncenter size-full wp-image-48168"></td>
     <td class="column-2">Mitch McGary</td>
     <td class="column-3">Michigan</td> 
    </tr> 
    <tr class="row-162"> 
     <td class="column-1"></td>
     <td class="column-2">Nik Stauskas</td>
     <td class="column-3">Michigan</td> 
    </tr> 
    <tr class="row-163"> 
     <td class="column-1"></td>
     <td class="column-2">Zak Irvin</td>
     <td class="column-3">Michigan</td> 
    </tr> 
    <tr class="row-164"> 
     <td class="column-1"></td>
     <td class="column-2">Caris LeVert</td>
     <td class="column-3">Michigan</td> 
    </tr> 
    <tr class="row-165"> 
     <td class="column-1"></td>
     <td class="column-2">Max Bielfeldt</td>
     <td class="column-3">Michigan</td> 
    </tr> 
    <tr class="row-166"> 
     <td class="column-1"></td>
     <td class="column-2">Jordan Morgan</td>
     <td class="column-3">Michigan</td> 
    </tr> 
    <tr class="row-167"> 
     <td class="column-1"></td>
     <td class="column-2">Keith Appling</td>
     <td class="column-3">Michigan State</td> 
    </tr> 
    <tr class="row-168"> 
     <td class="column-1"></td>
     <td class="column-2">Russell Byrd</td>
     <td class="column-3">Michigan State</td> 
    </tr> 
    <tr class="row-169"> 
     <td class="column-1"><img src="http://www.hoopgroup.com/wp-content/uploads/2012/03/BrandenDawson100.jpg" alt="" title="BrandenDawson100" width="100" height="120" class="aligncenter size-full wp-image-18831"></td>
     <td class="column-2">Branden Dawson</td>
     <td class="column-3">Michigan State</td> 
    </tr> 
    <tr class="row-170"> 
     <td class="column-1"></td>
     <td class="column-2">Gary Harris</td>
     <td class="column-3">Michigan State</td> 
    </tr> 
    <tr class="row-171"> 
     <td class="column-1"></td>
     <td class="column-2">Kenny Kaminski</td>
     <td class="column-3">Michigan State</td> 
    </tr> 
    <tr class="row-172"> 
     <td class="column-1"></td>
     <td class="column-2">Adreian Payne</td>
     <td class="column-3">Michigan State</td> 
    </tr> 
    <tr class="row-173"> 
     <td class="column-1"></td>
     <td class="column-2">Travis Trice</td>
     <td class="column-3">Michigan State</td> 
    </tr> 
    <tr class="row-174"> 
     <td class="column-1"></td>
     <td class="column-2">Byron Ashe</td>
     <td class="column-3">Mount St. Mary's</td> 
    </tr> 
    <tr class="row-175"> 
     <td class="column-1"></td>
     <td class="column-2">Taylor Danaher</td>
     <td class="column-3">Mount St. Mary's</td> 
    </tr> 
    <tr class="row-176"> 
     <td class="column-1"></td>
     <td class="column-2">Charles Glover</td>
     <td class="column-3">Mount St. Mary's</td> 
    </tr> 
    <tr class="row-177"> 
     <td class="column-1"></td>
     <td class="column-2">Gregory Graves</td>
     <td class="column-3">Mount St. Mary's</td> 
    </tr> 
    <tr class="row-178"> 
     <td class="column-1"></td>
     <td class="column-2">Maalik Howard</td>
     <td class="column-3">Mount St. Mary's</td> 
    </tr> 
    <tr class="row-179"> 
     <td class="column-1"></td>
     <td class="column-2">Will Lyle</td>
     <td class="column-3">Mount St. Mary's</td> 
    </tr> 
    <tr class="row-180"> 
     <td class="column-1"></td>
     <td class="column-2">Chris Martin</td>
     <td class="column-3">Mount St. Mary's</td> 
    </tr> 
    <tr class="row-181"> 
     <td class="column-1"></td>
     <td class="column-2">Liam McManimon</td>
     <td class="column-3">Mount St. Mary's</td> 
    </tr> 
    <tr class="row-182"> 
     <td class="column-1"></td>
     <td class="column-2">Julian Norfleet</td>
     <td class="column-3">Mount St. Mary's</td> 
    </tr> 
    <tr class="row-183"> 
     <td class="column-1"></td>
     <td class="column-2">Khalid Nwandu</td>
     <td class="column-3">Mount St. Mary's</td> 
    </tr> 
    <tr class="row-184"> 
     <td class="column-1"></td>
     <td class="column-2">Sam Prescott</td>
     <td class="column-3">Mount St. Mary's</td> 
    </tr> 
    <tr class="row-185"> 
     <td class="column-1"></td>
     <td class="column-2">Rashad Whack</td>
     <td class="column-3">Mount St. Mary's</td> 
    </tr> 
    <tr class="row-186"> 
     <td class="column-1"></td>
     <td class="column-2">Arthur Edwards</td>
     <td class="column-3">New Mexico</td> 
    </tr> 
    <tr class="row-187"> 
     <td class="column-1"></td>
     <td class="column-2">Obi Aget</td>
     <td class="column-3">New Mexico</td> 
    </tr> 
    <tr class="row-188"> 
     <td class="column-1"></td>
     <td class="column-2">Ian Baker</td>
     <td class="column-3">New Mexico State</td> 
    </tr> 
    <tr class="row-189"> 
     <td class="column-1"></td>
     <td class="column-2">Sim Bhullar</td>
     <td class="column-3">New Mexico State</td> 
    </tr> 
    <tr class="row-190"> 
     <td class="column-1"></td>
     <td class="column-2">Tanveer Bhullar</td>
     <td class="column-3">New Mexico State</td> 
    </tr> 
    <tr class="row-191"> 
     <td class="column-1"></td>
     <td class="column-2">Renaldo Dixon</td>
     <td class="column-3">New Mexico State</td> 
    </tr> 
    <tr class="row-192"> 
     <td class="column-1"><img src="https://hoopgroup.com/wp-content/uploads/2012/11/NateBritt100.jpg" alt="" width="100" height="120" class="aligncenter size-full wp-image-27286"></td>
     <td class="column-2">Nate Britt</td>
     <td class="column-3">North Carolina</td> 
    </tr> 
    <tr class="row-193"> 
     <td class="column-1"></td>
     <td class="column-2">Kennedy Meeks</td>
     <td class="column-3">North Carolina</td> 
    </tr> 
    <tr class="row-194"> 
     <td class="column-1"></td>
     <td class="column-2">Luke Davis</td>
     <td class="column-3">North Carolina</td> 
    </tr> 
    <tr class="row-195"> 
     <td class="column-1"><img src="https://hoopgroup.com/wp-content/uploads/2011/03/DesmondHubert100.jpg" alt="" width="100" height="120" class="aligncenter size-full wp-image-8569"></td>
     <td class="column-2">Desmond Hubert</td>
     <td class="column-3">North Carolina</td> 
    </tr> 
    <tr class="row-196"> 
     <td class="column-1"></td>
     <td class="column-2">Jackson Simmons</td>
     <td class="column-3">North Carolina</td> 
    </tr> 
    <tr class="row-197"> 
     <td class="column-1"></td>
     <td class="column-2">Isaiah Hicks</td>
     <td class="column-3">North Carolina</td> 
    </tr> 
    <tr class="row-198"> 
     <td class="column-1"></td>
     <td class="column-2">James Manor</td>
     <td class="column-3">North Carolina</td> 
    </tr> 
    <tr class="row-199"> 
     <td class="column-1"></td>
     <td class="column-2">Denzel Robinson</td>
     <td class="column-3">North Carolina</td> 
    </tr> 
    <tr class="row-200"> 
     <td class="column-1"><img src="https://hoopgroup.com/wp-content/uploads/2011/02/JamesMcAdoo1001.jpg" alt="" width="100" height="120" class="aligncenter size-full wp-image-3817"></td>
     <td class="column-2">James McAdoo</td>
     <td class="column-3">North Carolina</td> 
    </tr> 
    <tr class="row-201"> 
     <td class="column-1"></td>
     <td class="column-2">Jay Copeland</td>
     <td class="column-3">North Carolina Central</td> 
    </tr> 
    <tr class="row-202"> 
     <td class="column-1"></td>
     <td class="column-2">Jordan Parks</td>
     <td class="column-3">North Carolina Central</td> 
    </tr> 
    <tr class="row-203"> 
     <td class="column-1"></td>
     <td class="column-2">Ebuka Anyaorah</td>
     <td class="column-3">North Carolina Central</td> 
    </tr> 
    <tr class="row-204"> 
     <td class="column-1"></td>
     <td class="column-2">Enoch Hood</td>
     <td class="column-3">North Carolina Central</td> 
    </tr> 
    <tr class="row-205"> 
     <td class="column-1"></td>
     <td class="column-2">Reggie Groves</td>
     <td class="column-3">North Carolina Central</td> 
    </tr> 
    <tr class="row-206"> 
     <td class="column-1"></td>
     <td class="column-2">Jamal Ferguson</td>
     <td class="column-3">North Carolina Central</td> 
    </tr> 
    <tr class="row-207"> 
     <td class="column-1"></td>
     <td class="column-2">Emanuel Chapman</td>
     <td class="column-3">North Carolina Central</td> 
    </tr> 
    <tr class="row-208"> 
     <td class="column-1"><img src="https://hoopgroup.com/wp-content/uploads/2014/03/Anthonybarber100.jpg" alt="" width="100" height="120" class="aligncenter size-full wp-image-48174"></td>
     <td class="column-2">Anthony Barber</td>
     <td class="column-3">North Carolina State</td> 
    </tr> 
    <tr class="row-209"> 
     <td class="column-1"></td>
     <td class="column-2">Desmond Lee</td>
     <td class="column-3">North Carolina State</td> 
    </tr> 
    <tr class="row-210"> 
     <td class="column-1"></td>
     <td class="column-2">Lennard Freeman</td>
     <td class="column-3">North Carolina State</td> 
    </tr> 
    <tr class="row-211"> 
     <td class="column-1"></td>
     <td class="column-2">Tyler Lewis</td>
     <td class="column-3">North Carolina State</td> 
    </tr> 
    <tr class="row-212"> 
     <td class="column-1"></td>
     <td class="column-2">Patrick Wallace</td>
     <td class="column-3">North Carolina State</td> 
    </tr> 
    <tr class="row-213"> 
     <td class="column-1"></td>
     <td class="column-2">Beejay Anya</td>
     <td class="column-3">North Carolina State</td> 
    </tr> 
    <tr class="row-214"> 
     <td class="column-1"></td>
     <td class="column-2">Chase Cannon</td>
     <td class="column-3">North Carolina State</td> 
    </tr> 
    <tr class="row-215"> 
     <td class="column-1"></td>
     <td class="column-2">Staats Battle</td>
     <td class="column-3">North Carolina State</td> 
    </tr> 
    <tr class="row-216"> 
     <td class="column-1"><img src="https://hoopgroup.com/wp-content/uploads/2013/11/Aaron-Craft-100.jpg" alt="" width="100" height="120" class="aligncenter size-full wp-image-44709"></td>
     <td class="column-2">Aaron Craft</td>
     <td class="column-3">Ohio State</td> 
    </tr> 
    <tr class="row-217"> 
     <td class="column-1"></td>
     <td class="column-2">Kam Williams</td>
     <td class="column-3">Ohio State</td> 
    </tr> 
    <tr class="row-218"> 
     <td class="column-1"></td>
     <td class="column-2">Amir Williams</td>
     <td class="column-3">Ohio State</td> 
    </tr> 
    <tr class="row-219"> 
     <td class="column-1"></td>
     <td class="column-2">Andrew Goldstein</td>
     <td class="column-3">Ohio State</td> 
    </tr> 
    <tr class="row-220"> 
     <td class="column-1"></td>
     <td class="column-2">Jake Lorbach</td>
     <td class="column-3">Ohio State</td> 
    </tr> 
    <tr class="row-221"> 
     <td class="column-1"></td>
     <td class="column-2">Isaiah Cousins</td>
     <td class="column-3">Oklahoma</td> 
    </tr> 
    <tr class="row-222"> 
     <td class="column-1"></td>
     <td class="column-2">James Fraschilla</td>
     <td class="column-3">Oklahoma</td> 
    </tr> 
    <tr class="row-223"> 
     <td class="column-1"><img src="https://hoopgroup.com/wp-content/uploads/2014/03/Kamari-Murphy-100.jpg" alt="" width="100" height="120" class="aligncenter size-full wp-image-47180"></td>
     <td class="column-2">Kamari Murphy</td>
     <td class="column-3">Oklahoma State</td> 
    </tr> 
    <tr class="row-224"> 
     <td class="column-1"></td>
     <td class="column-2">Waverly Austin</td>
     <td class="column-3">Oregon</td> 
    </tr> 
    <tr class="row-225"> 
     <td class="column-1"></td>
     <td class="column-2">Jason Calliste</td>
     <td class="column-3">Oregon</td> 
    </tr> 
    <tr class="row-226"> 
     <td class="column-1"></td>
     <td class="column-2">AJ Lapray</td>
     <td class="column-3">Oregon</td> 
    </tr> 
    <tr class="row-227"> 
     <td class="column-1"></td>
     <td class="column-2">Brian Crow</td>
     <td class="column-3">Oregon</td> 
    </tr> 
    <tr class="row-228"> 
     <td class="column-1"><img src="https://hoopgroup.com/wp-content/uploads/2012/11/BrandonAustin100.jpg" alt="" width="100" height="120" class="aligncenter size-full wp-image-27279"></td>
     <td class="column-2">Brandon Austin</td>
     <td class="column-3">Oregon</td> 
    </tr> 
    <tr class="row-229"> 
     <td class="column-1"></td>
     <td class="column-2">Jamel Artis</td>
     <td class="column-3">Pittsburgh</td> 
    </tr> 
    <tr class="row-230"> 
     <td class="column-1"><img src="https://hoopgroup.com/wp-content/uploads/2014/03/DurrandJohnson100.jpg" alt="" width="100" height="120" class="aligncenter size-full wp-image-47199"></td>
     <td class="column-2">Durand Johnson</td>
     <td class="column-3">Pittsburgh</td> 
    </tr> 
    <tr class="row-231"> 
     <td class="column-1"><img src="https://hoopgroup.com/wp-content/uploads/2011/12/ChrisJones100.jpg" alt="" width="104" height="117" class="aligncenter size-full wp-image-14407"></td>
     <td class="column-2">Chris Jones</td>
     <td class="column-3">Pittsburgh</td> 
    </tr> 
    <tr class="row-232"> 
     <td class="column-1"></td>
     <td class="column-2">Josh Newkirk</td>
     <td class="column-3">Pittsburgh</td> 
    </tr> 
    <tr class="row-233"> 
     <td class="column-1"></td>
     <td class="column-2">Aron Nwankwo</td>
     <td class="column-3">Pittsburgh</td> 
    </tr> 
    <tr class="row-234"> 
     <td class="column-1"><img src="https://hoopgroup.com/wp-content/uploads/2011/02/Lamar-Patterson-100.jpg" alt="" width="100" height="120" class="aligncenter size-full wp-image-2685"></td>
     <td class="column-2">Lamar Patterson</td>
     <td class="column-3">Pittsburgh</td> 
    </tr> 
    <tr class="row-235"> 
     <td class="column-1"></td>
     <td class="column-2">Derrick Randall</td>
     <td class="column-3">Pittsburgh</td> 
    </tr> 
    <tr class="row-236"> 
     <td class="column-1"></td>
     <td class="column-2">James Robinson</td>
     <td class="column-3">Pittsburgh</td> 
    </tr> 
    <tr class="row-237"> 
     <td class="column-1"></td>
     <td class="column-2">Joseph Uchebo</td>
     <td class="column-3">Pittsburgh</td> 
    </tr> 
    <tr class="row-238"> 
     <td class="column-1"></td>
     <td class="column-2">Cameron Wright</td>
     <td class="column-3">Pittsburgh</td> 
    </tr> 
    <tr class="row-239"> 
     <td class="column-1"><img src="https://hoopgroup.com/wp-content/uploads/2014/03/MikeYoung100.jpg" alt="" width="100" height="120" class="aligncenter size-full wp-image-48175"></td>
     <td class="column-2">Michael Young</td>
     <td class="column-3">Pittsburgh</td> 
    </tr> 
    <tr class="row-240"> 
     <td class="column-1"><img src="https://hoopgroup.com/wp-content/uploads/2011/02/Talib-Zanna-100.jpg" alt="" width="100" height="120" class="aligncenter size-full wp-image-2684"></td>
     <td class="column-2">Talib Zanna</td>
     <td class="column-3">Pittsburgh</td> 
    </tr> 
    <tr class="row-241"> 
     <td class="column-1"></td>
     <td class="column-2">Rodney Bullock</td>
     <td class="column-3">Providence</td> 
    </tr> 
    <tr class="row-242"> 
     <td class="column-1"></td>
     <td class="column-2">Carson Desrosiers</td>
     <td class="column-3">Providence</td> 
    </tr> 
    <tr class="row-243"> 
     <td class="column-1"></td>
     <td class="column-2">Josh Fortune</td>
     <td class="column-3">Providence</td> 
    </tr> 
    <tr class="row-244"> 
     <td class="column-1"><img src="https://hoopgroup.com/wp-content/uploads/2012/01/TylerHarris1001.jpg" alt="" width="100" height="120" class="aligncenter size-full wp-image-15053"></td>
     <td class="column-2">Tyler Harris</td>
     <td class="column-3">Providence</td> 
    </tr> 
    <tr class="row-245"> 
     <td class="column-1"></td>
     <td class="column-2">LaDontae Henton</td>
     <td class="column-3">Providence</td> 
    </tr> 
    <tr class="row-246"> 
     <td class="column-1"></td>
     <td class="column-2">Brice Kofane</td>
     <td class="column-3">Providence</td> 
    </tr> 
    <tr class="row-247"> 
     <td class="column-1"></td>
     <td class="column-2">Casey Woodring</td>
     <td class="column-3">Providence</td> 
    </tr> 
    <tr class="row-248"> 
     <td class="column-1"></td>
     <td class="column-2">Evan Maschmeyer</td>
     <td class="column-3">St. Joseph's</td> 
    </tr> 
    <tr class="row-249"> 
     <td class="column-1"></td>
     <td class="column-2">Daryus Quarles</td>
     <td class="column-3">St. Joseph's</td> 
    </tr> 
    <tr class="row-250"> 
     <td class="column-1"></td>
     <td class="column-2">Ronald Roberts</td>
     <td class="column-3">St. Joseph's</td> 
    </tr> 
    <tr class="row-251"> 
     <td class="column-1"><img src="https://hoopgroup.com/wp-content/uploads/2011/09/IsaiahMiles1001.jpg" alt="" width="100" height="120" class="aligncenter size-full wp-image-12933"></td>
     <td class="column-2">Isaiah Miles</td>
     <td class="column-3">St. Joseph's</td> 
    </tr> 
    <tr class="row-252"> 
     <td class="column-1"></td>
     <td class="column-2">Kyle Molock</td>
     <td class="column-3">St. Joseph's</td> 
    </tr> 
    <tr class="row-253"> 
     <td class="column-1"></td>
     <td class="column-2">Chris Wilson</td>
     <td class="column-3">St. Joseph's</td> 
    </tr> 
    <tr class="row-254"> 
     <td class="column-1"></td>
     <td class="column-2">Eric Kindler</td>
     <td class="column-3">St. Joseph's</td> 
    </tr> 
    <tr class="row-255"> 
     <td class="column-1"></td>
     <td class="column-2">Jai Williams</td>
     <td class="column-3">St. Joseph's</td> 
    </tr> 
    <tr class="row-256"> 
     <td class="column-1"></td>
     <td class="column-2">DeAndre Bembry</td>
     <td class="column-3">St. Joseph's</td> 
    </tr> 
    <tr class="row-257"> 
     <td class="column-1"></td>
     <td class="column-2">Halil Kanacevic</td>
     <td class="column-3">St. Joseph's</td> 
    </tr> 
    <tr class="row-258"> 
     <td class="column-1"><img src="https://hoopgroup.com/wp-content/uploads/2014/03/aaronbrown100.jpg" alt="" width="100" height="120" class="aligncenter size-full wp-image-48163"></td>
     <td class="column-2">Aaron Brown</td>
     <td class="column-3">St. Joseph's</td> 
    </tr> 
    <tr class="row-259"> 
     <td class="column-1"></td>
     <td class="column-2">Grandy Glaze</td>
     <td class="column-3">St. Louis</td> 
    </tr> 
    <tr class="row-260"> 
     <td class="column-1"><img src="https://hoopgroup.com/wp-content/uploads/2014/03/AchYacoubou100.jpg" alt="" width="100" height="120" class="aligncenter size-full wp-image-47198"></td>
     <td class="column-2">Achraf Yacoubou</td>
     <td class="column-3">St. Louis</td> 
    </tr> 
    <tr class="row-261"> 
     <td class="column-1"></td>
     <td class="column-2">Mike McCall</td>
     <td class="column-3">St. Louis</td> 
    </tr> 
    <tr class="row-262"> 
     <td class="column-1"></td>
     <td class="column-2">Reggie Agbeko</td>
     <td class="column-3">St. Louis</td> 
    </tr> 
    <tr class="row-263"> 
     <td class="column-1"></td>
     <td class="column-2">John Manning</td>
     <td class="column-3">St. Louis</td> 
    </tr> 
    <tr class="row-264"> 
     <td class="column-1"></td>
     <td class="column-2">Ryan Staten</td>
     <td class="column-3">San Diego State</td> 
    </tr> 
    <tr class="row-265"> 
     <td class="column-1"></td>
     <td class="column-2">Parker U'u</td>
     <td class="column-3">San Diego State</td> 
    </tr> 
    <tr class="row-266"> 
     <td class="column-1"></td>
     <td class="column-2">Robbie Lemons</td>
     <td class="column-3">Stanford</td> 
    </tr> 
    <tr class="row-267"> 
     <td class="column-1"></td>
     <td class="column-2">Wade Morgan</td>
     <td class="column-3">Stanford</td> 
    </tr> 
    <tr class="row-268"> 
     <td class="column-1"></td>
     <td class="column-2">Dwight Powell</td>
     <td class="column-3">Stanford</td> 
    </tr> 
    <tr class="row-269"> 
     <td class="column-1"></td>
     <td class="column-2">Dallas Cameron</td>
     <td class="column-3">Stephen F Austin</td> 
    </tr> 
    <tr class="row-270"> 
     <td class="column-1"></td>
     <td class="column-2">Justin Dotson</td>
     <td class="column-3">Stephen F Austin</td> 
    </tr> 
    <tr class="row-271"> 
     <td class="column-1"></td>
     <td class="column-2">Deshaunt Walker</td>
     <td class="column-3">Stephen F Austin</td> 
    </tr> 
    <tr class="row-272"> 
     <td class="column-1"></td>
     <td class="column-2">BJ Johnson</td>
     <td class="column-3">Syracuse</td> 
    </tr> 
    <tr class="row-273"> 
     <td class="column-1"></td>
     <td class="column-2">Jerami Grant</td>
     <td class="column-3">Syracuse</td> 
    </tr> 
    <tr class="row-274"> 
     <td class="column-1"></td>
     <td class="column-2">CJ Fair</td>
     <td class="column-3">Syracuse</td> 
    </tr> 
    <tr class="row-275"> 
     <td class="column-1"><img src="https://hoopgroup.com/wp-content/uploads/2014/03/TrevorCooney100.jpg" alt="" width="100" height="120" class="aligncenter size-full wp-image-47183"></td>
     <td class="column-2">Trevor Cooney</td>
     <td class="column-3">Syracuse</td> 
    </tr> 
    <tr class="row-276"> 
     <td class="column-1"><img src="https://hoopgroup.com/wp-content/uploads/2011/12/TylerEnnis1001.jpg" alt="" width="100" height="120" class="aligncenter size-full wp-image-14413"></td>
     <td class="column-2">Tyler Ennis</td>
     <td class="column-3">Syracuse</td> 
    </tr> 
    <tr class="row-277"> 
     <td class="column-1"><img src="https://hoopgroup.com/wp-content/uploads/2011/09/TylerRoberson1001.jpg" alt="" width="100" height="120" class="aligncenter size-full wp-image-13309"></td>
     <td class="column-2">Tyler Roberson</td>
     <td class="column-3">Syracuse</td> 
    </tr> 
    <tr class="row-278"> 
     <td class="column-1"></td>
     <td class="column-2">Russ DeRemer</td>
     <td class="column-3">Syracuse</td> 
    </tr> 
    <tr class="row-279"> 
     <td class="column-1"><img src="https://hoopgroup.com/wp-content/uploads/2014/03/RakeemChristmas100.jpg" alt="" width="100" height="120" class="aligncenter size-full wp-image-47182"></td>
     <td class="column-2">Rakeem Christmas</td>
     <td class="column-3">Syracuse</td> 
    </tr> 
    <tr class="row-280"> 
     <td class="column-1"></td>
     <td class="column-2">Dajuan Coleman</td>
     <td class="column-3">Syracuse</td> 
    </tr> 
    <tr class="row-281"> 
     <td class="column-1"></td>
     <td class="column-2">Ron Patterson</td>
     <td class="column-3">Syracuse</td> 
    </tr> 
    <tr class="row-282"> 
     <td class="column-1"></td>
     <td class="column-2">Chinoso Obokoh</td>
     <td class="column-3">Syracuse</td> 
    </tr> 
    <tr class="row-283"> 
     <td class="column-1"><img src="https://hoopgroup.com/wp-content/uploads/2014/03/AntonioBarton100.jpg" alt="" width="100" height="120" class="aligncenter size-full wp-image-48161"></td>
     <td class="column-2">Antonio Barton</td>
     <td class="column-3">Tennessee</td> 
    </tr> 
    <tr class="row-284"> 
     <td class="column-1"></td>
     <td class="column-2">Galen Campbell</td>
     <td class="column-3">Tennessee</td> 
    </tr> 
    <tr class="row-285"> 
     <td class="column-1"></td>
     <td class="column-2">Jose Rodriguez</td>
     <td class="column-3">Texas Southern</td> 
    </tr> 
    <tr class="row-286"> 
     <td class="column-1"></td>
     <td class="column-2">Tyree Bynum</td>
     <td class="column-3">Texas Southern</td> 
    </tr> 
    <tr class="row-287"> 
     <td class="column-1"></td>
     <td class="column-2">Aaric Murray</td>
     <td class="column-3">Texas Southern</td> 
    </tr> 
    <tr class="row-288"> 
     <td class="column-1"></td>
     <td class="column-2">Davonte Chaney</td>
     <td class="column-3">Texas Southern</td> 
    </tr> 
    <tr class="row-289"> 
     <td class="column-1"></td>
     <td class="column-2">Lew Evans</td>
     <td class="column-3">Tulsa</td> 
    </tr> 
    <tr class="row-290"> 
     <td class="column-1"></td>
     <td class="column-2">Stevie Repichowski</td>
     <td class="column-3">Tulsa</td> 
    </tr> 
    <tr class="row-291"> 
     <td class="column-1"></td>
     <td class="column-2">Henry Lowe</td>
     <td class="column-3">Villanova</td> 
    </tr> 
    <tr class="row-292"> 
     <td class="column-1"></td>
     <td class="column-2">Kris Jenkins</td>
     <td class="column-3">Villanova</td> 
    </tr> 
    <tr class="row-293"> 
     <td class="column-1"><img src="https://hoopgroup.com/wp-content/uploads/2011/09/JoshHart100.jpg" alt="" width="100" height="120" class="aligncenter size-full wp-image-12701"></td>
     <td class="column-2">Josh Hart</td>
     <td class="column-3">Villanova</td> 
    </tr> 
    <tr class="row-294"> 
     <td class="column-1"><img src="https://hoopgroup.com/wp-content/uploads/2012/01/DarrunHilliard100.jpg" alt="" width="100" height="120" class="aligncenter size-full wp-image-15058"></td>
     <td class="column-2">Darrun Hilliard</td>
     <td class="column-3">Villanova</td> 
    </tr> 
    <tr class="row-295"> 
     <td class="column-1"><img src="https://hoopgroup.com/wp-content/uploads/2014/03/TonyChenault100.jpg" alt="" width="100" height="120" class="aligncenter size-full wp-image-47177"></td>
     <td class="column-2">Tony Chennault</td>
     <td class="column-3">Villanova</td> 
    </tr> 
    <tr class="row-296"> 
     <td class="column-1"></td>
     <td class="column-2">Nick McMahon</td>
     <td class="column-3">Villanova</td> 
    </tr> 
    <tr class="row-297"> 
     <td class="column-1"><img src="https://hoopgroup.com/wp-content/uploads/2013/10/RyanArcidiacano100.jpg" alt="" width="100" height="120" class="aligncenter size-full wp-image-44428"></td>
     <td class="column-2">Ryan Arcidiacano</td>
     <td class="column-3">Villanova</td> 
    </tr> 
    <tr class="row-298"> 
     <td class="column-1"></td>
     <td class="column-2">Patrick Farrell</td>
     <td class="column-3">Villanova</td> 
    </tr> 
    <tr class="row-299"> 
     <td class="column-1"><img src="https://hoopgroup.com/wp-content/uploads/2011/03/JayvaughnPinkston100.jpg" alt="" width="100" height="120" class="aligncenter size-full wp-image-7665"></td>
     <td class="column-2">JayVaughn Pinkston</td>
     <td class="column-3">Villanova</td> 
    </tr> 
    <tr class="row-300"> 
     <td class="column-1"><img src="https://hoopgroup.com/wp-content/uploads/2014/03/DanielOchefu100.jpg" alt="" width="100" height="120" class="aligncenter size-full wp-image-47200"></td>
     <td class="column-2">Daniel Ochefu</td>
     <td class="column-3">Villanova</td> 
    </tr> 
    <tr class="row-301"> 
     <td class="column-1"></td>
     <td class="column-2">Dylan Ennis</td>
     <td class="column-3">Villanova</td> 
    </tr> 
    <tr class="row-302"> 
     <td class="column-1"></td>
     <td class="column-2">Devon Hall</td>
     <td class="column-3">Virginia</td> 
    </tr> 
    <tr class="row-303"> 
     <td class="column-1"><img src="https://hoopgroup.com/wp-content/uploads/2014/03/JustinAnderson100.jpg" alt="" width="100" height="120" class="aligncenter size-full wp-image-48169"></td>
     <td class="column-2">Justin Anderson</td>
     <td class="column-3">Virginia</td> 
    </tr> 
    <tr class="row-304"> 
     <td class="column-1"></td>
     <td class="column-2">Maleek Frazier</td>
     <td class="column-3">Virginia</td> 
    </tr> 
    <tr class="row-305"> 
     <td class="column-1"></td>
     <td class="column-2">Teven Jones</td>
     <td class="column-3">Virginia</td> 
    </tr> 
    <tr class="row-306"> 
     <td class="column-1"></td>
     <td class="column-2">Mike Tobey</td>
     <td class="column-3">Virginia</td> 
    </tr> 
    <tr class="row-307"> 
     <td class="column-1"></td>
     <td class="column-2">Anthony Gill</td>
     <td class="column-3">Virginia</td> 
    </tr> 
    <tr class="row-308"> 
     <td class="column-1"></td>
     <td class="column-2">Caid Kirven</td>
     <td class="column-3">Virginia</td> 
    </tr> 
    <tr class="row-309"> 
     <td class="column-1"></td>
     <td class="column-2">Akil Mitchell</td>
     <td class="column-3">Virginia</td> 
    </tr> 
    <tr class="row-310"> 
     <td class="column-1"></td>
     <td class="column-2">Jeff Jones</td>
     <td class="column-3">Virginia</td> 
    </tr> 
    <tr class="row-311"> 
     <td class="column-1"></td>
     <td class="column-2">Jairus Lyles</td>
     <td class="column-3">Virginia Commonwealth</td> 
    </tr> 
    <tr class="row-312"> 
     <td class="column-1"></td>
     <td class="column-2">Briante Weber</td>
     <td class="column-3">Virginia Commonwealth</td> 
    </tr> 
    <tr class="row-313"> 
     <td class="column-1"></td>
     <td class="column-2">Rob Brandenberg</td>
     <td class="column-3">Virginia Commonwealth</td> 
    </tr> 
    <tr class="row-314"> 
     <td class="column-1"></td>
     <td class="column-2">Mo Alie-Cox</td>
     <td class="column-3">Virginia Commonwealth</td> 
    </tr> 
    <tr class="row-315"> 
     <td class="column-1"></td>
     <td class="column-2">Torey Burston</td>
     <td class="column-3">Virginia Commonwealth</td> 
    </tr> 
    <tr class="row-316"> 
     <td class="column-1"></td>
     <td class="column-2">Jordan Burgess</td>
     <td class="column-3">Virginia Commonwealth</td> 
    </tr> 
    <tr class="row-317"> 
     <td class="column-1"></td>
     <td class="column-2">Traveon Graham</td>
     <td class="column-3">Virginia Commonwealth</td> 
    </tr> 
    <tr class="row-318"> 
     <td class="column-1"><img src="https://hoopgroup.com/wp-content/uploads/2011/08/Melvin-Johnson-100.jpg" alt="" width="100" height="120" class="aligncenter size-full wp-image-12403"></td>
     <td class="column-2">Melvin Johnson</td>
     <td class="column-3">Virginia Commonwealth</td> 
    </tr> 
    <tr class="row-319"> 
     <td class="column-1"></td>
     <td class="column-2">Emerson Burk</td>
     <td class="column-3">Virginia Commonwealth</td> 
    </tr> 
    <tr class="row-320"> 
     <td class="column-1"></td>
     <td class="column-2">Connar Tava</td>
     <td class="column-3">Western Michigan</td> 
    </tr> 
    <tr class="row-321"> 
     <td class="column-1"></td>
     <td class="column-2">AJ Avery</td>
     <td class="column-3">Western Michigan</td> 
    </tr> 
    <tr class="row-322"> 
     <td class="column-1"></td>
     <td class="column-2">DJ Bowles</td>
     <td class="column-3">Wichita State</td> 
    </tr> 
    <tr class="row-323"> 
     <td class="column-1"></td>
     <td class="column-2">Darius Carter</td>
     <td class="column-3">Wichita State</td> 
    </tr> 
    <tr class="row-324"> 
     <td class="column-1"></td>
     <td class="column-2">Kadeem Coleby</td>
     <td class="column-3">Wichita State</td> 
    </tr> 
    <tr class="row-325"> 
     <td class="column-1"></td>
     <td class="column-2">Cleanthony Early</td>
     <td class="column-3">Wichita State</td> 
    </tr> 
    <tr class="row-326"> 
     <td class="column-1"></td>
     <td class="column-2">Ben Brust</td>
     <td class="column-3">Wisconsin</td> 
    </tr> 
    <tr class="row-327"> 
     <td class="column-1"></td>
     <td class="column-2">Nigel Hayes</td>
     <td class="column-3">Wisconsin</td> 
    </tr> 
    <tr class="row-328"> 
     <td class="column-1"></td>
     <td class="column-2">Traevon Jackson</td>
     <td class="column-3">Wisconsin</td> 
    </tr> 
    <tr class="row-329"> 
     <td class="column-1"></td>
     <td class="column-2">Duje Dukan</td>
     <td class="column-3">Wisconsin</td> 
    </tr> 
    <tr class="row-330"> 
     <td class="column-1"></td>
     <td class="column-2">Vitto Brown</td>
     <td class="column-3">Wisconsin</td> 
    </tr> 
    <tr class="row-331"> 
     <td class="column-1"></td>
     <td class="column-2">Evan Anderson</td>
     <td class="column-3">Wisconsin</td> 
    </tr> 
    <tr class="row-332"> 
     <td class="column-1"></td>
     <td class="column-2">Riley Dearring</td>
     <td class="column-3">Wisconsin</td> 
    </tr> 
    <tr class="row-333"> 
     <td class="column-1"></td>
     <td class="column-2">Zach Korkowski</td>
     <td class="column-3">Wofford</td> 
    </tr> 
    <tr class="row-334"> 
     <td class="column-1"></td>
     <td class="column-2">Zac Grossenbacher</td>
     <td class="column-3">Wofford</td> 
    </tr> 
    <tr class="row-335"> 
     <td class="column-1"></td>
     <td class="column-2">Justin Gordon</td>
     <td class="column-3">Wofford</td> 
    </tr> 
    <tr class="row-336"> 
     <td class="column-1"></td>
     <td class="column-2">Remy Abell</td>
     <td class="column-3">Xavier</td> 
    </tr> 
    <tr class="row-337"> 
     <td class="column-1"></td>
     <td class="column-2">Semaj Christon</td>
     <td class="column-3">Xavier</td> 
    </tr> 
    <tr class="row-338"> 
     <td class="column-1"></td>
     <td class="column-2">Dee Davis</td>
     <td class="column-3">Xavier</td> 
    </tr> 
    <tr class="row-339"> 
     <td class="column-1"><img src="https://hoopgroup.com/wp-content/uploads/2014/03/MylesDavis100.jpg" alt="" width="93" height="106" class="aligncenter size-full wp-image-48170"></td>
     <td class="column-2">Myles Davis</td>
     <td class="column-3">Xavier</td> 
    </tr> 
    <tr class="row-340"> 
     <td class="column-1"></td>
     <td class="column-2">Isaiah Philmore</td>
     <td class="column-3">Xavier</td> 
    </tr> 
    <tr class="row-341"> 
     <td class="column-1"><img src="https://hoopgroup.com/wp-content/uploads/2011/09/KamalRichards100.jpg" alt="" width="100" height="120" class="aligncenter size-full wp-image-12690"></td>
     <td class="column-2">Kamall Richards</td>
     <td class="column-3">Xavier</td> 
    </tr> 
    <tr class="row-342"> 
     <td class="column-1"></td>
     <td class="column-2">Matt Stainbrook</td>
     <td class="column-3">Xavier</td> 
    </tr> 
    <tr class="row-343"> 
     <td class="column-1"></td>
     <td class="column-2">Tim Stainbrook</td>
     <td class="column-3">Xavier</td> 
    </tr> 
   </tbody> 
  </table> 
 </div>
 <!-- .entry-content -->  
 <!-- .entry-footer --> 
</article>