<article id="post-94941" class="post-94941 post type-post status-publish format-standard has-post-thumbnail hentry category-uncategorized"> 
 <!-- .entry-header --> 
 <div class="entry-content"> 
  <p><img class="aligncenter size-full wp-image-45605" src="https://hoopgroup.com/wp-content/uploads/2014/01/Tyus-Battle.jpg" alt="" width="900" height="600"></p> 
  <p>Many Hoop Group alum have succeeded at many different levels, from the NBA, Division 1 as well as small colleges and in high school. On this page we look at some of the Hoop Group alumni excelling at the college level.</p> 
  <p>Click on the links below to see the successful Hoop Group alumni.</p> 
  <p>College players are recognized for their outstanding seasons with the post-season All Conference Teams.</p> 
  <p>Hoop Group Alumni are featured on All Conference Teams from all 32 conferences.</p> 
  <p>HOOP GROUP ALUMNI SELECTED TO ALL CONFERENCE TEAMS 2018</p> 
  <table id="tablepress-1620" class="tablepress tablepress-id-1620"> 
   <tbody class="row-hover"> 
    <tr class="row-1 odd"> 
     <td class="column-1"></td>
     <td class="column-2">Name</td>
     <td class="column-3">College</td>
     <td class="column-4">Conference</td> 
    </tr> 
    <tr class="row-2 even"> 
     <td class="column-1"><img src="https://hoopgroup.com/wp-content/uploads/2016/11/JalenAdams100.jpg" alt="" width="100" height="120" class="aligncenter size-full wp-image-80272"></td>
     <td class="column-2">Jalen Adams</td>
     <td class="column-3">UConn</td>
     <td class="column-4">American Athletic</td> 
    </tr> 
    <tr class="row-3 odd"> 
     <td class="column-1"><img src="https://hoopgroup.com/wp-content/uploads/2014/02/GaryClark100.jpg" alt="" width="100" height="120" class="aligncenter size-full wp-image-47070"></td>
     <td class="column-2">Gary Clark</td>
     <td class="column-3">Cincinnati</td>
     <td class="column-4">American Athletic</td> 
    </tr> 
    <tr class="row-4 even"> 
     <td class="column-1"><img src="https://hoopgroup.com/wp-content/uploads/2018/03/junioretou100.jpg" alt="" width="100" height="120" class="size-full wp-image-94874"></td>
     <td class="column-2">Junior Etou</td>
     <td class="column-3">Tulsa</td>
     <td class="column-4">American Athletic</td> 
    </tr> 
    <tr class="row-5 odd"> 
     <td class="column-1"></td>
     <td class="column-2">Jeremiah Martin</td>
     <td class="column-3">Memphis</td>
     <td class="column-4">American Athletic</td> 
    </tr> 
    <tr class="row-6 even"> 
     <td class="column-1"><img src="https://hoopgroup.com/wp-content/uploads/2015/10/QuintonRose100.jpg" alt="" width="100" height="120" class="aligncenter size-full wp-image-64948"></td>
     <td class="column-2">Quinton Rose</td>
     <td class="column-3">Temple</td>
     <td class="column-4">American Athletic</td> 
    </tr> 
    <tr class="row-7 odd"> 
     <td class="column-1"></td>
     <td class="column-2">Kyle Washington</td>
     <td class="column-3">Cincinnati</td>
     <td class="column-4">American Athletic</td> 
    </tr> 
    <tr class="row-8 even"> 
     <td class="column-1"></td>
     <td class="column-2">Jahad Thomas</td>
     <td class="column-3">UMass Lowell</td>
     <td class="column-4">America East</td> 
    </tr> 
    <tr class="row-9 odd"> 
     <td class="column-1"></td>
     <td class="column-2">John Carroll</td>
     <td class="column-3">Hartford</td>
     <td class="column-4">America East</td> 
    </tr> 
    <tr class="row-10 even"> 
     <td class="column-1"></td>
     <td class="column-2">Travis Charles</td>
     <td class="column-3">Albany</td>
     <td class="column-4">America East</td> 
    </tr> 
    <tr class="row-11 odd"> 
     <td class="column-1"></td>
     <td class="column-2">Aaron Calixte</td>
     <td class="column-3">Maine</td>
     <td class="column-4">America East</td> 
    </tr> 
    <tr class="row-12 even"> 
     <td class="column-1"><img src="https://hoopgroup.com/wp-content/uploads/2015/09/JasonDunnemvp100.jpg" alt="" width="100" height="120" class="aligncenter size-full wp-image-64138"></td>
     <td class="column-2">Jason Dunne</td>
     <td class="column-3">Hartford</td>
     <td class="column-4">America East</td> 
    </tr> 
    <tr class="row-13 odd"> 
     <td class="column-1"></td>
     <td class="column-2">Trae Bell-Haynes</td>
     <td class="column-3">Vermont</td>
     <td class="column-4">America East</td> 
    </tr> 
    <tr class="row-14 even"> 
     <td class="column-1"></td>
     <td class="column-2">Joe Cremo</td>
     <td class="column-3">Albany</td>
     <td class="column-4">America East</td> 
    </tr> 
    <tr class="row-15 odd"> 
     <td class="column-1"><img src="https://hoopgroup.com/wp-content/uploads/2014/11/JRLynchmvptip1001.jpg" alt="" width="100" height="120" class="aligncenter size-full wp-image-55852"></td>
     <td class="column-2">JR Lynch</td>
     <td class="column-3">Hartford</td>
     <td class="column-4">America East</td> 
    </tr> 
    <tr class="row-16 even"> 
     <td class="column-1"></td>
     <td class="column-2">Jairus Lyles</td>
     <td class="column-3">UMBC</td>
     <td class="column-4">America East</td> 
    </tr> 
    <tr class="row-17 odd"> 
     <td class="column-1"></td>
     <td class="column-2">Jared Terrell</td>
     <td class="column-3">URI</td>
     <td class="column-4">Atlantic 10</td> 
    </tr> 
    <tr class="row-18 even"> 
     <td class="column-1"></td>
     <td class="column-2">Kellan Grady</td>
     <td class="column-3">Davidson</td>
     <td class="column-4">Atlantic 10</td> 
    </tr> 
    <tr class="row-19 odd"> 
     <td class="column-1"><img src="https://hoopgroup.com/wp-content/uploads/2013/11/JaylenAdams100.jpg" alt="" width="100" height="120" class="aligncenter size-full wp-image-45041"></td>
     <td class="column-2">Jaylen Adams</td>
     <td class="column-3">St. Bonaventure</td>
     <td class="column-4">Atlantic 10</td> 
    </tr> 
    <tr class="row-20 even"> 
     <td class="column-1"><img src="https://hoopgroup.com/wp-content/uploads/2013/11/PeytonAldridge100.jpg" alt="" width="100" height="120" class="aligncenter size-full wp-image-44981"></td>
     <td class="column-2">Peyton Aldriddge</td>
     <td class="column-3">Davidson</td>
     <td class="column-4">Atlantic 10</td> 
    </tr> 
    <tr class="row-21 odd"> 
     <td class="column-1"></td>
     <td class="column-2">Otis Livingston</td>
     <td class="column-3">George Mason</td>
     <td class="column-4">Atlantic 10</td> 
    </tr> 
    <tr class="row-22 even"> 
     <td class="column-1"></td>
     <td class="column-2">BJ Johnson</td>
     <td class="column-3">La Salle</td>
     <td class="column-4">Atlantic 10</td> 
    </tr> 
    <tr class="row-23 odd"> 
     <td class="column-1"></td>
     <td class="column-2">Shavar Newkirk</td>
     <td class="column-3">St. Joseph's</td>
     <td class="column-4">Atlantic 10</td> 
    </tr> 
    <tr class="row-24 even"> 
     <td class="column-1"></td>
     <td class="column-2">Grant Golden</td>
     <td class="column-3">Richmond</td>
     <td class="column-4">Atlantic 10</td> 
    </tr> 
    <tr class="row-25 odd"> 
     <td class="column-1"></td>
     <td class="column-2">James Demery</td>
     <td class="column-3">St. Joseph's</td>
     <td class="column-4">Atlantic 10</td> 
    </tr> 
    <tr class="row-26 even"> 
     <td class="column-1"></td>
     <td class="column-2">Jerome Robinson</td>
     <td class="column-3">Boston College</td>
     <td class="column-4">Atlantic Coast</td> 
    </tr> 
    <tr class="row-27 odd"> 
     <td class="column-1"><img src="https://hoopgroup.com/wp-content/uploads/2015/01/Tyus-Battle-3.jpg" alt="" width="100" height="120" class="aligncenter size-full wp-image-57177"></td>
     <td class="column-2">Tyus Battle</td>
     <td class="column-3">Syracuse</td>
     <td class="column-4">Atlantic Coast</td> 
    </tr> 
    <tr class="row-28 even"> 
     <td class="column-1"></td>
     <td class="column-2">Devon Hall</td>
     <td class="column-3">Virginia</td>
     <td class="column-4">Atlantic Coast</td> 
    </tr> 
    <tr class="row-29 odd"> 
     <td class="column-1"></td>
     <td class="column-2">Justin Robinson</td>
     <td class="column-3">Virginia Tech</td>
     <td class="column-4">Atlantic Coast</td> 
    </tr> 
    <tr class="row-30 even"> 
     <td class="column-1"><img src="https://hoopgroup.com/wp-content/uploads/2015/09/MattFarrell1002.jpg" alt="" width="100" height="120" class="aligncenter size-full wp-image-64148"></td>
     <td class="column-2">Matt Farrell</td>
     <td class="column-3">Notre Dame</td>
     <td class="column-4">Atlantic Coast</td> 
    </tr> 
    <tr class="row-31 odd"> 
     <td class="column-1"><img src="https://hoopgroup.com/wp-content/uploads/2015/11/Ty-Jerome.png" alt="" width="100" height="120" class="aligncenter size-full wp-image-66396"></td>
     <td class="column-2">Ty Jerome</td>
     <td class="column-3">Virginia</td>
     <td class="column-4">Atlantic Coast</td> 
    </tr> 
    <tr class="row-32 even"> 
     <td class="column-1"><img src="https://hoopgroup.com/wp-content/uploads/2016/11/LonnieWalkerHGE100.jpg" alt="" width="100" height="120" class="aligncenter size-full wp-image-80408"></td>
     <td class="column-2">Lonnie Walker</td>
     <td class="column-3">Miami</td>
     <td class="column-4">Atlantic Coast</td> 
    </tr> 
    <tr class="row-33 odd"> 
     <td class="column-1"><img src="https://hoopgroup.com/wp-content/uploads/2017/10/bryantcrawford100.jpg" alt="" width="100" height="120" class="aligncenter size-full wp-image-89641"></td>
     <td class="column-2">Bryant Crawford</td>
     <td class="column-3">Wake Forest</td>
     <td class="column-4">Atlantic Coast</td> 
    </tr> 
    <tr class="row-34 even"> 
     <td class="column-1"></td>
     <td class="column-2">Markell Johnson</td>
     <td class="column-3">NC State</td>
     <td class="column-4">Atlantic Coast</td> 
    </tr> 
    <tr class="row-35 odd"> 
     <td class="column-1"></td>
     <td class="column-2">Allerick Freeman</td>
     <td class="column-3">NC State</td>
     <td class="column-4">Atlantic Coast</td> 
    </tr> 
    <tr class="row-36 even"> 
     <td class="column-1"></td>
     <td class="column-2">Garrison Matthews</td>
     <td class="column-3">Lipscomb</td>
     <td class="column-4">Atlantic Sun</td> 
    </tr> 
    <tr class="row-37 odd"> 
     <td class="column-1"></td>
     <td class="column-2">Zach Johnson</td>
     <td class="column-3">Florida Gulf Coast</td>
     <td class="column-4">Atlantic Sun</td> 
    </tr> 
    <tr class="row-38 even"> 
     <td class="column-1"></td>
     <td class="column-2">Anthony Tarke</td>
     <td class="column-3">NJIT</td>
     <td class="column-4">Atlantic Sun</td> 
    </tr> 
    <tr class="row-39 odd"> 
     <td class="column-1"><img src="https://hoopgroup.com/wp-content/uploads/2014/01/AbdulLewis100.jpg" alt="" width="100" height="120" class="aligncenter size-full wp-image-45615"></td>
     <td class="column-2">Abdul Lewis</td>
     <td class="column-3">NJIT</td>
     <td class="column-4">Atlantic Sun</td> 
    </tr> 
    <tr class="row-40 even"> 
     <td class="column-1"></td>
     <td class="column-2">James Palmer</td>
     <td class="column-3">Nebraska</td>
     <td class="column-4">Big 10</td> 
    </tr> 
    <tr class="row-41 odd"> 
     <td class="column-1"><img src="https://hoopgroup.com/wp-content/uploads/2015/11/Tony-Carr.jpg" alt="" width="100" height="120" class="aligncenter size-full wp-image-66397"></td>
     <td class="column-2">Tony Carr</td>
     <td class="column-3">Penn State</td>
     <td class="column-4">Big 10</td> 
    </tr> 
    <tr class="row-42 even"> 
     <td class="column-1"><img src="https://hoopgroup.com/wp-content/uploads/2015/10/Anthony-Cowan100.jpg" alt="" width="100" height="120" class="aligncenter size-full wp-image-65027"></td>
     <td class="column-2">Anthony Cowan</td>
     <td class="column-3">Maryland</td>
     <td class="column-4">Big 10</td> 
    </tr> 
    <tr class="row-43 odd"> 
     <td class="column-1"><img src="https://hoopgroup.com/wp-content/uploads/2015/10/Miles-Bridges100.jpg" alt="" width="100" height="120" class="aligncenter size-full wp-image-65042"></td>
     <td class="column-2">Miles Bridges</td>
     <td class="column-3">Michigan State</td>
     <td class="column-4">Big 10</td> 
    </tr> 
    <tr class="row-44 even"> 
     <td class="column-1"></td>
     <td class="column-2">Leron Black</td>
     <td class="column-3">Illinois</td>
     <td class="column-4">Big 10</td> 
    </tr> 
    <tr class="row-45 odd"> 
     <td class="column-1"></td>
     <td class="column-2">Robert Johnson</td>
     <td class="column-3">Indiana</td>
     <td class="column-4">Big 10</td> 
    </tr> 
    <tr class="row-46 even"> 
     <td class="column-1"><img src="https://hoopgroup.com/wp-content/uploads/2015/10/Kevin-Huerter100.jpg" alt="" width="100" height="120" class="aligncenter size-full wp-image-65041"></td>
     <td class="column-2">Kevin Huerta</td>
     <td class="column-3">Maryland</td>
     <td class="column-4">Big 10</td> 
    </tr> 
    <tr class="row-47 odd"> 
     <td class="column-1"></td>
     <td class="column-2">Muhammad-Ali Abdur-Rahkim</td>
     <td class="column-3">Michigan</td>
     <td class="column-4">Big 10</td> 
    </tr> 
    <tr class="row-48 even"> 
     <td class="column-1"></td>
     <td class="column-2">Isaac Copeland</td>
     <td class="column-3">Nebraska</td>
     <td class="column-4">Big 10</td> 
    </tr> 
    <tr class="row-49 odd"> 
     <td class="column-1"><img src="https://hoopgroup.com/wp-content/uploads/2015/10/LamarStevens100.jpg" alt="" width="100" height="120" class="aligncenter size-full wp-image-65087"></td>
     <td class="column-2">Lamar Stevens</td>
     <td class="column-3">Penn State</td>
     <td class="column-4">Big 10</td> 
    </tr> 
    <tr class="row-50 even"> 
     <td class="column-1"></td>
     <td class="column-2">Mike Watkins</td>
     <td class="column-3">Penn State</td>
     <td class="column-4">Big 10</td> 
    </tr> 
    <tr class="row-51 odd"> 
     <td class="column-1"></td>
     <td class="column-2">Jae'Sean Tate</td>
     <td class="column-3">Ohio State</td>
     <td class="column-4">Big 10</td> 
    </tr> 
    <tr class="row-52 even"> 
     <td class="column-1"><img src="https://hoopgroup.com/wp-content/uploads/2016/11/VinceEdwards100.jpg" alt="" width="100" height="120" class="aligncenter size-full wp-image-80360"></td>
     <td class="column-2">Vincent Edwards</td>
     <td class="column-3">Purdue</td>
     <td class="column-4">Big 10</td> 
    </tr> 
    <tr class="row-53 odd"> 
     <td class="column-1"></td>
     <td class="column-2">Dakota Mathias</td>
     <td class="column-3">Purdue</td>
     <td class="column-4">Big 10</td> 
    </tr> 
    <tr class="row-54 even"> 
     <td class="column-1"><img src="https://hoopgroup.com/wp-content/uploads/2017/01/Mohammed-Bamba-100.jpg" alt="" width="100" height="120" class="aligncenter size-full wp-image-82449"></td>
     <td class="column-2">Mohamba Bamba</td>
     <td class="column-3">Texas</td>
     <td class="column-4">Big 12</td> 
    </tr> 
    <tr class="row-55 odd"> 
     <td class="column-1"></td>
     <td class="column-2">Cameron Lard</td>
     <td class="column-3">Iowa State</td>
     <td class="column-4">Big 12</td> 
    </tr> 
    <tr class="row-56 even"> 
     <td class="column-1"></td>
     <td class="column-2">Lagerald Vick</td>
     <td class="column-3">Kansas</td>
     <td class="column-4">Big 12</td> 
    </tr> 
    <tr class="row-57 odd"> 
     <td class="column-1"><img src="https://hoopgroup.com/wp-content/uploads/2016/11/Devontegraham100.jpg" alt="" width="100" height="120" class="aligncenter size-full wp-image-80529"></td>
     <td class="column-2">Devonte Graham</td>
     <td class="column-3">Kansas</td>
     <td class="column-4">Big 12</td> 
    </tr> 
    <tr class="row-58 even"> 
     <td class="column-1"></td>
     <td class="column-2">Shamorie Ponds</td>
     <td class="column-3">St. John's</td>
     <td class="column-4">Big East</td> 
    </tr> 
    <tr class="row-59 odd"> 
     <td class="column-1"><img src="https://hoopgroup.com/wp-content/uploads/2014/02/AngelDelgadosmall.jpg" alt="" width="100" height="120" class="aligncenter size-full wp-image-47071"></td>
     <td class="column-2">Angel Delgado</td>
     <td class="column-3">Seton Hall</td>
     <td class="column-4">Big East</td> 
    </tr> 
    <tr class="row-60 even"> 
     <td class="column-1"><img src="https://hoopgroup.com/wp-content/uploads/2016/11/JalenBrunson100.jpg" alt="" width="100" height="120" class="aligncenter size-full wp-image-80267"></td>
     <td class="column-2">Jalen Brunson</td>
     <td class="column-3">Villanova</td>
     <td class="column-4">Big East</td> 
    </tr> 
    <tr class="row-61 odd"> 
     <td class="column-1"></td>
     <td class="column-2">Mikal Bridges</td>
     <td class="column-3">Villanova</td>
     <td class="column-4">Big East</td> 
    </tr> 
    <tr class="row-62 even"> 
     <td class="column-1"><img src="https://hoopgroup.com/wp-content/uploads/2014/10/marcusderrickson100.jpg" alt="" width="100" height="120" class="aligncenter size-full wp-image-55081"></td>
     <td class="column-2">Marcus Derrickson</td>
     <td class="column-3">Georgetown</td>
     <td class="column-4">Big East</td> 
    </tr> 
    <tr class="row-63 odd"> 
     <td class="column-1"><img src="https://hoopgroup.com/wp-content/uploads/2016/11/KelanMartin100.jpg" alt="" width="100" height="120" class="aligncenter size-full wp-image-80320"></td>
     <td class="column-2">Kelan Martin</td>
     <td class="column-3">Butler</td>
     <td class="column-4">Big East</td> 
    </tr> 
    <tr class="row-64 even"> 
     <td class="column-1"></td>
     <td class="column-2">Andrew Rowsey</td>
     <td class="column-3">Marquette</td>
     <td class="column-4">Big East</td> 
    </tr> 
    <tr class="row-65 odd"> 
     <td class="column-1"><img src="https://hoopgroup.com/wp-content/uploads/2014/05/desiRodriguez100.jpg" alt="" width="100" height="120" class="aligncenter size-full wp-image-51055"></td>
     <td class="column-2">Desi Rodriguez</td>
     <td class="column-3">Seton Hall</td>
     <td class="column-4">Big East</td> 
    </tr> 
    <tr class="row-66 even"> 
     <td class="column-1"></td>
     <td class="column-2">Jordan Davis</td>
     <td class="column-3">Northern Colorado</td>
     <td class="column-4">Big Sky</td> 
    </tr> 
    <tr class="row-67 odd"> 
     <td class="column-1"></td>
     <td class="column-2">Ahmad Thomas</td>
     <td class="column-3">UNC Asheville</td>
     <td class="column-4">Big South</td> 
    </tr> 
    <tr class="row-68 even"> 
     <td class="column-1"></td>
     <td class="column-2">Macio Teague</td>
     <td class="column-3">UNC Asheville</td>
     <td class="column-4">Big South</td> 
    </tr> 
    <tr class="row-69 odd"> 
     <td class="column-1"><img src="https://hoopgroup.com/wp-content/uploads/2015/02/AndreFox100.jpg" alt="" width="100" height="120" class="aligncenter size-full wp-image-57326"></td>
     <td class="column-2">Andre Fox</td>
     <td class="column-3">High Point</td>
     <td class="column-4">Big South</td> 
    </tr> 
    <tr class="row-70 even"> 
     <td class="column-1"></td>
     <td class="column-2">Christian Keeling</td>
     <td class="column-3">Charleston Southern</td>
     <td class="column-4">Big South</td> 
    </tr> 
    <tr class="row-71 odd"> 
     <td class="column-1"><img src="https://hoopgroup.com/wp-content/uploads/2015/02/EdPolite100.jpg" alt="" width="100" height="120" class="aligncenter size-full wp-image-57250"></td>
     <td class="column-2">Ed Polite</td>
     <td class="column-3">Radford</td>
     <td class="column-4">Big South</td> 
    </tr> 
    <tr class="row-72 even"> 
     <td class="column-1"></td>
     <td class="column-2">Jahaad Proctor</td>
     <td class="column-3">High Point</td>
     <td class="column-4">Big South</td> 
    </tr> 
    <tr class="row-73 odd"> 
     <td class="column-1"><img src="https://hoopgroup.com/wp-content/uploads/2018/03/kyleallman100.jpg" alt="" width="100" height="120" class="aligncenter size-full wp-image-94879"></td>
     <td class="column-2">Kyle Allman</td>
     <td class="column-3">Cal State Fullerton</td>
     <td class="column-4">Big West</td> 
    </tr> 
    <tr class="row-74 even"> 
     <td class="column-1"></td>
     <td class="column-2">Max Heidegger</td>
     <td class="column-3">UC Santa Barbara</td>
     <td class="column-4">Big West</td> 
    </tr> 
    <tr class="row-75 odd"> 
     <td class="column-1"></td>
     <td class="column-2">Donovan Fields</td>
     <td class="column-3">Cal Poly</td>
     <td class="column-4">Big West</td> 
    </tr> 
    <tr class="row-76 even"> 
     <td class="column-1"><img src="https://hoopgroup.com/wp-content/uploads/2015/10/nathan-knight100.jpg" alt="" width="100" height="120" class="aligncenter size-full wp-image-65050"></td>
     <td class="column-2">Nathan Knight</td>
     <td class="column-3">William &amp; Mary</td>
     <td class="column-4">Colonial</td> 
    </tr> 
    <tr class="row-77 odd"> 
     <td class="column-1"></td>
     <td class="column-2">Joe Chealey</td>
     <td class="column-3">College of Charleston</td>
     <td class="column-4">Colonial</td> 
    </tr> 
    <tr class="row-78 even"> 
     <td class="column-1"></td>
     <td class="column-2">Jarrell Brantley</td>
     <td class="column-3">College of Charleston</td>
     <td class="column-4">Colonial</td> 
    </tr> 
    <tr class="row-79 odd"> 
     <td class="column-1"><img src="https://hoopgroup.com/wp-content/uploads/2016/02/ZaneMartinmvp100.jpg" alt="" width="100" height="120" class="aligncenter size-full wp-image-70496"></td>
     <td class="column-2">Zane Martin</td>
     <td class="column-3">Towson</td>
     <td class="column-4">Colonial</td> 
    </tr> 
    <tr class="row-80 even"> 
     <td class="column-1"><img src="https://hoopgroup.com/wp-content/uploads/2017/03/JustinWrightForeman100.jpg" alt="" width="100" height="120" class="aligncenter size-full wp-image-83820"></td>
     <td class="column-2">Justin Wright-Foreman</td>
     <td class="column-3">Hofstra</td>
     <td class="column-4">Colonial</td> 
    </tr> 
    <tr class="row-81 odd"> 
     <td class="column-1"><img src="https://hoopgroup.com/wp-content/uploads/2016/01/RyanDaly100-1.jpg" alt="" width="100" height="120" class="aligncenter size-full wp-image-68597"></td>
     <td class="column-2">Ryan Daly</td>
     <td class="column-3">Delaware</td>
     <td class="column-4">Colonial</td> 
    </tr> 
    <tr class="row-82 even"> 
     <td class="column-1"></td>
     <td class="column-2">David Cohn</td>
     <td class="column-3">William &amp; Mary</td>
     <td class="column-4">Colonial</td> 
    </tr> 
    <tr class="row-83 odd"> 
     <td class="column-1"></td>
     <td class="column-2">Rokas Gustys</td>
     <td class="column-3">Hofstra</td>
     <td class="column-4">Colonial</td> 
    </tr> 
    <tr class="row-84 even"> 
     <td class="column-1"></td>
     <td class="column-2">Jordon Talley</td>
     <td class="column-3">UNCW</td>
     <td class="column-4">Colonial</td> 
    </tr> 
    <tr class="row-85 odd"> 
     <td class="column-1"></td>
     <td class="column-2">CJ Burks</td>
     <td class="column-3">Marshall</td>
     <td class="column-4">Conference USA</td> 
    </tr> 
    <tr class="row-86 even"> 
     <td class="column-1"></td>
     <td class="column-2">Roosevelt Smart</td>
     <td class="column-3">North Texas</td>
     <td class="column-4">Conference USA</td> 
    </tr> 
    <tr class="row-87 odd"> 
     <td class="column-1"></td>
     <td class="column-2">BJ Stith</td>
     <td class="column-3">Old Dominion</td>
     <td class="column-4">Conference USA</td> 
    </tr> 
    <tr class="row-88 even"> 
     <td class="column-1"></td>
     <td class="column-2">Ahmad Caver</td>
     <td class="column-3">Old Dominion</td>
     <td class="column-4">Conference USA</td> 
    </tr> 
    <tr class="row-89 odd"> 
     <td class="column-1"></td>
     <td class="column-2">Lavone Holland</td>
     <td class="column-3">Northern Kentucky</td>
     <td class="column-4">Horizon</td> 
    </tr> 
    <tr class="row-90 even"> 
     <td class="column-1"><img src="https://hoopgroup.com/wp-content/uploads/2015/10/SethTowns100.jpg" alt="" width="100" height="120" class="aligncenter size-full wp-image-65088"></td>
     <td class="column-2">Seth Towns</td>
     <td class="column-3">Harvard</td>
     <td class="column-4">Ivy</td> 
    </tr> 
    <tr class="row-91 odd"> 
     <td class="column-1"></td>
     <td class="column-2">Stone Gettings</td>
     <td class="column-3">Cornell</td>
     <td class="column-4">Ivy</td> 
    </tr> 
    <tr class="row-92 even"> 
     <td class="column-1"><img src="https://hoopgroup.com/wp-content/uploads/2015/02/MylesStephens100.jpg" alt="" width="100" height="120" class="aligncenter size-full wp-image-57332"></td>
     <td class="column-2">Myles Stephens</td>
     <td class="column-3">Princeton</td>
     <td class="column-4">Ivy</td> 
    </tr> 
    <tr class="row-93 odd"> 
     <td class="column-1"></td>
     <td class="column-2">Ryan Betley</td>
     <td class="column-3">Penn</td>
     <td class="column-4">Ivy</td> 
    </tr> 
    <tr class="row-94 even"> 
     <td class="column-1"><img src="https://hoopgroup.com/wp-content/uploads/2017/01/DesmondCambridge100.jpg" alt="" width="100" height="120" class="aligncenter size-full wp-image-82620"></td>
     <td class="column-2">Desmond Cambridge</td>
     <td class="column-3">Brown</td>
     <td class="column-4">Ivy</td> 
    </tr> 
    <tr class="row-95 odd"> 
     <td class="column-1"><img src="https://hoopgroup.com/wp-content/uploads/2018/03/darnellforeman100.jpg" alt="" width="100" height="120" class="aligncenter size-full wp-image-94881"></td>
     <td class="column-2">Darnell Foreman</td>
     <td class="column-3">Penn</td>
     <td class="column-4">Ivy</td> 
    </tr> 
    <tr class="row-96 even"> 
     <td class="column-1"><img src="https://hoopgroup.com/wp-content/uploads/2015/10/AJ-brodeur100.jpg" alt="" width="100" height="120" class="aligncenter size-full wp-image-65028"></td>
     <td class="column-2">AJ Brodeur</td>
     <td class="column-3">Penn</td>
     <td class="column-4">Ivy</td> 
    </tr> 
    <tr class="row-97 odd"> 
     <td class="column-1"><img src="https://hoopgroup.com/wp-content/uploads/2015/11/JustinBassey100.jpg" alt="" width="100" height="120" class="aligncenter size-full wp-image-66596"></td>
     <td class="column-2">Justin Bassey</td>
     <td class="column-3">Harvard</td>
     <td class="column-4">Ivy</td> 
    </tr> 
    <tr class="row-98 even"> 
     <td class="column-1"></td>
     <td class="column-2">Eugene German</td>
     <td class="column-3">Northern Illinois</td>
     <td class="column-4">MAC</td> 
    </tr> 
    <tr class="row-99 odd"> 
     <td class="column-1"></td>
     <td class="column-2">Elijah Minnie</td>
     <td class="column-3">Eastern Michigan</td>
     <td class="column-4">MAC</td> 
    </tr> 
    <tr class="row-100 even"> 
     <td class="column-1"></td>
     <td class="column-2">Darrian Ringo</td>
     <td class="column-3">Miami OH</td>
     <td class="column-4">MAC</td> 
    </tr> 
    <tr class="row-101 odd"> 
     <td class="column-1"></td>
     <td class="column-2">Tyler Nelson</td>
     <td class="column-3">Fairfield</td>
     <td class="column-4">MAAC</td> 
    </tr> 
    <tr class="row-102 even"> 
     <td class="column-1"><img src="https://hoopgroup.com/wp-content/uploads/2018/03/kahlildukes100.jpg" alt="" width="100" height="120" class="aligncenter size-full wp-image-94883"></td>
     <td class="column-2">Kahlil Dukes</td>
     <td class="column-3">Niagara</td>
     <td class="column-4">MAAC</td> 
    </tr> 
    <tr class="row-103 odd"> 
     <td class="column-1"></td>
     <td class="column-2">Austin Tilghman</td>
     <td class="column-3">Monmouth</td>
     <td class="column-4">MAAC</td> 
    </tr> 
    <tr class="row-104 even"> 
     <td class="column-1"></td>
     <td class="column-2">Rickey McGill</td>
     <td class="column-3">Iona</td>
     <td class="column-4">MAAC</td> 
    </tr> 
    <tr class="row-105 odd"> 
     <td class="column-1"></td>
     <td class="column-2">Matt Scott</td>
     <td class="column-3">Niagara</td>
     <td class="column-4">MAAC</td> 
    </tr> 
    <tr class="row-106 even"> 
     <td class="column-1"></td>
     <td class="column-2">Stevie Jordan</td>
     <td class="column-3">Rider</td>
     <td class="column-4">MAAC</td> 
    </tr> 
    <tr class="row-107 odd"> 
     <td class="column-1"></td>
     <td class="column-2">Brian Parker</td>
     <td class="column-3">Marist</td>
     <td class="column-4">MAAC</td> 
    </tr> 
    <tr class="row-108 even"> 
     <td class="column-1"></td>
     <td class="column-2">Frederick Scott</td>
     <td class="column-3">Rider</td>
     <td class="column-4">MAAC</td> 
    </tr> 
    <tr class="row-109 odd"> 
     <td class="column-1"></td>
     <td class="column-2">Jermaine Crumpton</td>
     <td class="column-3">Canisius</td>
     <td class="column-4">MAAC</td> 
    </tr> 
    <tr class="row-110 even"> 
     <td class="column-1"><img src="https://hoopgroup.com/wp-content/uploads/2014/02/ZaneWaterman100.jpg" alt="" width="100" height="120" class="aligncenter size-full wp-image-47067"></td>
     <td class="column-2">Zane Waterman</td>
     <td class="column-3">Manhattan</td>
     <td class="column-4">MAAC</td> 
    </tr> 
    <tr class="row-111 odd"> 
     <td class="column-1"><img src="https://hoopgroup.com/wp-content/uploads/2016/11/RJCole100.jpg" alt="" width="100" height="120" class="aligncenter size-full wp-image-80003"></td>
     <td class="column-2">RJ Cole</td>
     <td class="column-3">Howard</td>
     <td class="column-4">MEAC</td> 
    </tr> 
    <tr class="row-112 even"> 
     <td class="column-1"></td>
     <td class="column-2">Denzel Keyes</td>
     <td class="column-3">NCA&amp;T</td>
     <td class="column-4">MEAC</td> 
    </tr> 
    <tr class="row-113 odd"> 
     <td class="column-1"></td>
     <td class="column-2">Phillip Carr</td>
     <td class="column-3">Morgan State</td>
     <td class="column-4">MEAC</td> 
    </tr> 
    <tr class="row-114 even"> 
     <td class="column-1"></td>
     <td class="column-2">Lamar Morgan</td>
     <td class="column-3">Coppin State</td>
     <td class="column-4">MEAC</td> 
    </tr> 
    <tr class="row-115 odd"> 
     <td class="column-1"></td>
     <td class="column-2">Jermaine Marrow</td>
     <td class="column-3">Hampton</td>
     <td class="column-4">MEAC</td> 
    </tr> 
    <tr class="row-116 even"> 
     <td class="column-1"></td>
     <td class="column-2">Alize Johnson</td>
     <td class="column-3">Missouri State</td>
     <td class="column-4">MVC</td> 
    </tr> 
    <tr class="row-117 odd"> 
     <td class="column-1"></td>
     <td class="column-2">Brenton Scott</td>
     <td class="column-3">Indiana State</td>
     <td class="column-4">MVC</td> 
    </tr> 
    <tr class="row-118 even"> 
     <td class="column-1"><img src="https://hoopgroup.com/wp-content/uploads/2014/05/Calebmartinsmall.jpg" alt="" width="100" height="120" class="aligncenter size-full wp-image-51054"></td>
     <td class="column-2">Caleb Martin</td>
     <td class="column-3">Nevada</td>
     <td class="column-4">Mountain West</td> 
    </tr> 
    <tr class="row-119 odd"> 
     <td class="column-1"></td>
     <td class="column-2">Cody Martin</td>
     <td class="column-3">Nevada</td>
     <td class="column-4">Mountain West</td> 
    </tr> 
    <tr class="row-120 even"> 
     <td class="column-1"><img src="https://hoopgroup.com/wp-content/uploads/2014/01/ShakurJuistonmvptip100.jpg" alt="" width="100" height="120" class="aligncenter size-full wp-image-45701"></td>
     <td class="column-2">Shakur Juiston</td>
     <td class="column-3">UNLV</td>
     <td class="column-4">Mountain West</td> 
    </tr> 
    <tr class="row-121 odd"> 
     <td class="column-1"></td>
     <td class="column-2">Bryson Williams</td>
     <td class="column-3">Fresno State</td>
     <td class="column-4">Mountain West</td> 
    </tr> 
    <tr class="row-122 even"> 
     <td class="column-1"><img src="https://hoopgroup.com/wp-content/uploads/2016/03/Kendall-Stephens100.jpg" alt="" width="100" height="120" class="size-full wp-image-72800"></td>
     <td class="column-2">Kendall Stephens</td>
     <td class="column-3">Nevada</td>
     <td class="column-4">Mountain West</td> 
    </tr> 
    <tr class="row-123 odd"> 
     <td class="column-1"></td>
     <td class="column-2">Koby McEwen</td>
     <td class="column-3">Utah State</td>
     <td class="column-4">Mountain West</td> 
    </tr> 
    <tr class="row-124 even"> 
     <td class="column-1"><img src="https://hoopgroup.com/wp-content/uploads/2013/11/JojoCooper100.jpg" alt="" width="100" height="120" class="aligncenter size-full wp-image-44983"></td>
     <td class="column-2">JoJo Cooper</td>
     <td class="column-3">Wagner</td>
     <td class="column-4">NEC</td> 
    </tr> 
    <tr class="row-125 odd"> 
     <td class="column-1"></td>
     <td class="column-2">Joel Hernandez</td>
     <td class="column-3">LIU Brooklyn</td>
     <td class="column-4">NEC</td> 
    </tr> 
    <tr class="row-126 even"> 
     <td class="column-1"></td>
     <td class="column-2">Jamaal King</td>
     <td class="column-3">St. Francis PA</td>
     <td class="column-4">NEC</td> 
    </tr> 
    <tr class="row-127 odd"> 
     <td class="column-1"><img src="https://hoopgroup.com/wp-content/uploads/2018/03/dachonburke100.jpg" alt="" width="100" height="120" class="aligncenter size-full wp-image-94909"></td>
     <td class="column-2">Dachon Burke</td>
     <td class="column-3">Robert Morris</td>
     <td class="column-4">NEC</td> 
    </tr> 
    <tr class="row-128 even"> 
     <td class="column-1"></td>
     <td class="column-2">Rasheem Dunn</td>
     <td class="column-3">St. Francis NY</td>
     <td class="column-4">NEC</td> 
    </tr> 
    <tr class="row-129 odd"> 
     <td class="column-1"><img src="https://hoopgroup.com/wp-content/uploads/2018/03/blakefrancis100.jpg" alt="" width="100" height="120" class="aligncenter size-full wp-image-94908"></td>
     <td class="column-2">Blake Francis</td>
     <td class="column-3">Wagner</td>
     <td class="column-4">NEC</td> 
    </tr> 
    <tr class="row-130 even"> 
     <td class="column-1"><img src="https://hoopgroup.com/wp-content/uploads/2014/10/mikeholloway100.jpg" alt="" width="100" height="120" class="aligncenter size-full wp-image-55086"></td>
     <td class="column-2">Mike Holloway</td>
     <td class="column-3">FDU</td>
     <td class="column-4">NEC</td> 
    </tr> 
    <tr class="row-131 odd"> 
     <td class="column-1"><img src="https://hoopgroup.com/wp-content/uploads/2017/03/KeithBraxton100.jpg" alt="" width="100" height="120" class="aligncenter size-full wp-image-83701"></td>
     <td class="column-2">Keith Braxton</td>
     <td class="column-3">St. Francis</td>
     <td class="column-4">NEC</td> 
    </tr> 
    <tr class="row-132 even"> 
     <td class="column-1"></td>
     <td class="column-2">Tyler Khol</td>
     <td class="column-3">Central Connecticut St</td>
     <td class="column-4">NEC</td> 
    </tr> 
    <tr class="row-133 odd"> 
     <td class="column-1"></td>
     <td class="column-2">Darnell Edge</td>
     <td class="column-3">FDU</td>
     <td class="column-4">NEC</td> 
    </tr> 
    <tr class="row-134 even"> 
     <td class="column-1"></td>
     <td class="column-2">Adam Grant</td>
     <td class="column-3">Bryant</td>
     <td class="column-4">NEC</td> 
    </tr> 
    <tr class="row-135 odd"> 
     <td class="column-1"></td>
     <td class="column-2">Romone Saunders</td>
     <td class="column-3">Wagner</td>
     <td class="column-4">NEC</td> 
    </tr> 
    <tr class="row-136 even"> 
     <td class="column-1"></td>
     <td class="column-2">Averyl Ugba</td>
     <td class="column-3">Austin Peay</td>
     <td class="column-4">OVC</td> 
    </tr> 
    <tr class="row-137 odd"> 
     <td class="column-1"></td>
     <td class="column-2">Montell Goodwin</td>
     <td class="column-3">Eastern Illinois</td>
     <td class="column-4">OVC</td> 
    </tr> 
    <tr class="row-138 even"> 
     <td class="column-1"></td>
     <td class="column-2">Terrell Miller</td>
     <td class="column-3">Murray State</td>
     <td class="column-4">OVC</td> 
    </tr> 
    <tr class="row-139 odd"> 
     <td class="column-1"><img src="https://hoopgroup.com/wp-content/uploads/2016/11/TresTinkle100.jpg" alt="" width="100" height="120" class="aligncenter size-full wp-image-80330"></td>
     <td class="column-2">Tres Tinkle</td>
     <td class="column-3">Oregon State</td>
     <td class="column-4">PAC 12</td> 
    </tr> 
    <tr class="row-140 even"> 
     <td class="column-1"><img src="https://hoopgroup.com/wp-content/uploads/2016/11/AllonzoTrier100-1.jpg" alt="" width="100" height="120" class="aligncenter size-full wp-image-80532"></td>
     <td class="column-2">Allonzo Trier</td>
     <td class="column-3">Arizona</td>
     <td class="column-4">PAC 12</td> 
    </tr> 
    <tr class="row-141 odd"> 
     <td class="column-1"><img src="https://hoopgroup.com/wp-content/uploads/2016/11/ThomasWelsh100.jpg" alt="" width="100" height="120" class="aligncenter size-full wp-image-80491"></td>
     <td class="column-2">Thomas Welsh</td>
     <td class="column-3">UCLA</td>
     <td class="column-4">PAC 12</td> 
    </tr> 
    <tr class="row-142 even"> 
     <td class="column-1"></td>
     <td class="column-2">Andre Walker</td>
     <td class="column-3">Loyola</td>
     <td class="column-4">Patriot</td> 
    </tr> 
    <tr class="row-143 odd"> 
     <td class="column-1"><img src="https://hoopgroup.com/wp-content/uploads/2015/10/SaeedNelson100.jpg" alt="" width="100" height="120" class="aligncenter size-full wp-image-65096"></td>
     <td class="column-2">Sa'eed Nelson</td>
     <td class="column-3">American</td>
     <td class="column-4">Patriot</td> 
    </tr> 
    <tr class="row-144 even"> 
     <td class="column-1"><img src="https://hoopgroup.com/wp-content/uploads/2013/11/MattKlinewski100.jpg" alt="" width="100" height="120" class="aligncenter size-full wp-image-44990"></td>
     <td class="column-2">Matt Klinewski</td>
     <td class="column-3">Lafayette</td>
     <td class="column-4">Patriot</td> 
    </tr> 
    <tr class="row-145 odd"> 
     <td class="column-1"><img src="https://hoopgroup.com/wp-content/uploads/2015/11/Nana-Foulland-100.jpg" alt="" width="100" height="120" class="alignnone size-full wp-image-66515"></td>
     <td class="column-2">Nana Foulland</td>
     <td class="column-3">Bucknell</td>
     <td class="column-4">Patriot</td> 
    </tr> 
    <tr class="row-146 even"> 
     <td class="column-1"></td>
     <td class="column-2">Lance Tejada</td>
     <td class="column-3">Lehigh</td>
     <td class="column-4">Patriot</td> 
    </tr> 
    <tr class="row-147 odd"> 
     <td class="column-1"></td>
     <td class="column-2">Zach Thomas</td>
     <td class="column-3">Bucknell</td>
     <td class="column-4">Patriot</td> 
    </tr> 
    <tr class="row-148 even"> 
     <td class="column-1"><img src="https://hoopgroup.com/wp-content/uploads/2015/10/MaxMahoney1001.jpg" alt="" width="100" height="120" class="aligncenter size-full wp-image-65008"></td>
     <td class="column-2">Max Mahoney</td>
     <td class="column-3">BU</td>
     <td class="column-4">Patriot</td> 
    </tr> 
    <tr class="row-149 odd"> 
     <td class="column-1"></td>
     <td class="column-2">Sean O'Brien</td>
     <td class="column-3">Colgate</td>
     <td class="column-4">Patriot</td> 
    </tr> 
    <tr class="row-150 even"> 
     <td class="column-1"></td>
     <td class="column-2">Jehyve Floyd</td>
     <td class="column-3">Holy Cross</td>
     <td class="column-4">Patriot</td> 
    </tr> 
    <tr class="row-151 odd"> 
     <td class="column-1"></td>
     <td class="column-2">Stephen Brown</td>
     <td class="column-3">Bucknell</td>
     <td class="column-4">Patriot</td> 
    </tr> 
    <tr class="row-152 even"> 
     <td class="column-1"></td>
     <td class="column-2">Jordan Swopshire</td>
     <td class="column-3">Colgate</td>
     <td class="column-4">Patriot</td> 
    </tr> 
    <tr class="row-153 odd"> 
     <td class="column-1"></td>
     <td class="column-2">Kahron Ross</td>
     <td class="column-3">Lehigh</td>
     <td class="column-4">Patriot</td> 
    </tr> 
    <tr class="row-154 even"> 
     <td class="column-1"></td>
     <td class="column-2">Alex Petrie</td>
     <td class="column-3">Lafayette</td>
     <td class="column-4">Patriot</td> 
    </tr> 
    <tr class="row-155 odd"> 
     <td class="column-1"></td>
     <td class="column-2">Shawn Anderson</td>
     <td class="column-3">Navy</td>
     <td class="column-4">Patriot</td> 
    </tr> 
    <tr class="row-156 even"> 
     <td class="column-1"></td>
     <td class="column-2">Jaylen Barford</td>
     <td class="column-3">Arkansas</td>
     <td class="column-4">SEC</td> 
    </tr> 
    <tr class="row-157 odd"> 
     <td class="column-1"></td>
     <td class="column-2">Chris Chiozza</td>
     <td class="column-3">Florida</td>
     <td class="column-4">SEC</td> 
    </tr> 
    <tr class="row-158 even"> 
     <td class="column-1"></td>
     <td class="column-2">Kassius Robertson</td>
     <td class="column-3">Missouri</td>
     <td class="column-4">SEC</td> 
    </tr> 
    <tr class="row-159 odd"> 
     <td class="column-1"></td>
     <td class="column-2">James Dickey</td>
     <td class="column-3">UNCG</td>
     <td class="column-4">SoCon</td> 
    </tr> 
    <tr class="row-160 even"> 
     <td class="column-1"></td>
     <td class="column-2">Cameron Jackson</td>
     <td class="column-3">Wofford</td>
     <td class="column-4">SoCon</td> 
    </tr> 
    <tr class="row-161 odd"> 
     <td class="column-1"></td>
     <td class="column-2">Marvin Smith</td>
     <td class="column-3">UNCG</td>
     <td class="column-4">SoCon</td> 
    </tr> 
    <tr class="row-162 even"> 
     <td class="column-1"></td>
     <td class="column-2">Roddy Peters</td>
     <td class="column-3">Nicholls</td>
     <td class="column-4">Southland</td> 
    </tr> 
    <tr class="row-163 odd"> 
     <td class="column-1"></td>
     <td class="column-2">Tevon Saddler</td>
     <td class="column-3">Nicholls</td>
     <td class="column-4">Southland</td> 
    </tr> 
    <tr class="row-164 even"> 
     <td class="column-1"></td>
     <td class="column-2">David Caraher</td>
     <td class="column-3">Houston Baptist</td>
     <td class="column-4">Southland</td> 
    </tr> 
    <tr class="row-165 odd"> 
     <td class="column-1"></td>
     <td class="column-2">Jaren Lewis</td>
     <td class="column-3">Abilene Christian</td>
     <td class="column-4">Southland</td> 
    </tr> 
    <tr class="row-166 even"> 
     <td class="column-1"></td>
     <td class="column-2">John Dewey</td>
     <td class="column-3">Sam Houston State</td>
     <td class="column-4">Southland</td> 
    </tr> 
    <tr class="row-167 odd"> 
     <td class="column-1"></td>
     <td class="column-2">Gary Blackston</td>
     <td class="column-3">Prairie View A&amp;M</td>
     <td class="column-4">SWAC</td> 
    </tr> 
    <tr class="row-168 even"> 
     <td class="column-1"></td>
     <td class="column-2">Bryson Scott</td>
     <td class="column-3">Fort Wayne</td>
     <td class="column-4">Summit</td> 
    </tr> 
    <tr class="row-169 odd"> 
     <td class="column-1"></td>
     <td class="column-2">Tookie Brown</td>
     <td class="column-3">Georgia Southern</td>
     <td class="column-4">Sun Belt</td> 
    </tr> 
    <tr class="row-170 even"> 
     <td class="column-1"><img src="https://hoopgroup.com/wp-content/uploads/2016/11/KevinHervey100.jpg" alt="" width="100" height="120" class="aligncenter size-full wp-image-80355"></td>
     <td class="column-2">Kevin Hervey</td>
     <td class="column-3">Texas Arlington</td>
     <td class="column-4">Sun Belt</td> 
    </tr> 
    <tr class="row-171 odd"> 
     <td class="column-1"></td>
     <td class="column-2">Jordon Varnado</td>
     <td class="column-3">Troy</td>
     <td class="column-4">Sun Belt</td> 
    </tr> 
    <tr class="row-172 even"> 
     <td class="column-1"></td>
     <td class="column-2">Ronshad Shabazz</td>
     <td class="column-3">Appalachian State</td>
     <td class="column-4">Sun Belt</td> 
    </tr> 
    <tr class="row-173 odd"> 
     <td class="column-1"></td>
     <td class="column-2">Jahlil Tripp</td>
     <td class="column-3">Pacific</td>
     <td class="column-4">WCC</td> 
    </tr> 
    <tr class="row-174 even"> 
     <td class="column-1"></td>
     <td class="column-2">Conner Toolson</td>
     <td class="column-3">Utah Valley</td>
     <td class="column-4">WAC</td> 
    </tr> 
   </tbody> 
  </table> 
  <p>&nbsp;</p> 
 </div>
 <!-- .entry-content -->  
 <!-- .entry-footer --> 
</article>